Lemon/எலுமிச்சை,1,40 to 110
Tomato/தக்காளி 1st Quality,1,15 to 20
Tomato/தக்காளி 2nd Quality,1,10 to 15
Small Onion/சிறிய வெங்காயம்,1,35 to 45
Bellary/பெல்லாரி,1,20 to 25
Beans/பீன்ஸ் 1st Quality,1,25 to 35
Beans/பீன்ஸ் 2nd Quality,1,20 to 30
Carrot/கேரட் 1st Quality,1,35 to 55
Carrot/கேரட் 2nd Quality,1,30 to 50
Lady Finger/வெண்டைக்காய்,1,10
Tree Drumstick/மரம் முருங்கை,1,50
Plant Drumstick/முருங்கை,1,80
Beans/அவரை ஒட்டு,1,20 to 35
Green Pulses/பச்சை பயிறு,1,10
White Pulses/வெள்ளை பயிறு,1,9
Zucchini/சுரைக்காய்,1,1 to 8
Beetroot/பீட்ரூட்,1,9
White Pumpkin/வெள்ளை பூசணிக்காய்,1,5 to 7
Sambar Pumpkin/சாம்பார் பூசணிக்காய்,1,3 to 5
Kalla Manga/கள்ள மாங்காய்,1,40
OOrutu Manga/உருட்டு மாங்காய்,1,35 to 45
Potato/உருளைக்கிழங்கு 1st Quality,1,25 to 40
Potato/உருளைக்கிழங்கு 2nd Quality,1,20 to 35
Coconut/தேங்காய் 1st Quality,1,20 to 35
Coconut/தேங்காய் 2nd Quality,1,15 to 30
Green Chilli/பச்சை மிளகாய்,1,8 to 15
Cauliflower/காலிஃபிளவர் 1st Quality,1,15 to 20
Cauliflower/காலிஃபிளவர் 2nd Quality,1,10 to 15
Green Brinjal/கத்தரிக்காய் பச்சை,1,15 to 20
Blue Brinjal/கத்தரிக்காய் நீலம்,1,10 to 15
Banana Thar/வாழை தார்,1,10 to 13
Curry Leaves/கறிவேப்பிலை,1,10 to 15
Gourd/புடலங்காய் 1st Quality,1, 3
Gourd/புடலங்காய் 2nd Quality,1,–
Coriander/கொத்தமல்லி 1st Quality,1,50 to 60
Coriander/கொத்தமல்லி 2nd Quality,1,45 to 55
Radish/முள்ளங்கி 1st Quality,1,15
Radish/முள்ளங்கி 2nd Quality,1,10
Ginger/இஞ்சி,1,50 to 60
Butter Beans/பட்டர் பீன்ஸ்,1,80 to 100
Cabbage/முட்டை கோஸ்,1,8 to 10
Green Peas/பச்சை பட்டாணி,1,120 to 140
Bitter Gourd/பாகற்காய்,1,10
Nookal/நூக்கல்,1,20
Chaw Chaw/சவ்சவ்,1,8 to 10
Kovakkai/கோவக்காய்,1,16
Cluster Beans/கொத்தவரங்காய்,1,10 to 16
Gooseberry/நெல்லிக்காய்,1,20 to 25
Narthangai/நார்த்தங்காய்,1,20 to 35
Cucumber/வெள்ளரிக்காய்,1,26
Garlic/வெள்ளை பூண்டு,1,80
Gourd/பீர்க்கங்காய்,1,5
Small Tuber/சிறு கிழங்கு,1,–
Colocasia/சேப்பங்கிழங்கு,1,25
Soya beans/சோயா பீன்ஸ்,1,80 to 100
Butter Soya/பட்டர் சோயா,1,80 to 100
Senai Kilangu/சேனை கிழங்கு,1,25 to 30
Karunai Kilangu/கருணைக்கிழங்கு,1,35
Drumstick beans/முருங்கை பீன்ஸ்,1,35
Mangai Inji/மாங்காய் இஞ்சி,1,40 to 60