Lemon/எலுமிச்சை,1,70 to 140
Tomato/தக்காளி 1st Quality,1,10 to 15
Tomato/தக்காளி 2nd Quality,1,5
Small Onion/சிறிய வெங்காயம்,1,25 to 40
Bellary/பெல்லாரி,1,35 to 40
Beans/பீன்ஸ் 1st Quality,1,60 to 100
Beans/பீன்ஸ் 2nd Quality,1,55 to 95
Carrot/கேரட் 1st Quality,1,25 to 45
Carrot/கேரட் 2nd Quality,1,20 to 40
Lady Finger/வெண்டைக்காய்,1,10 to 15
Tree Drumstick/மரம் முருங்கை,1,18
Plant Drumstick/முருங்கை,1,28
Beans/அவரை ஒட்டு,1,17 to 20
Green Pulses/பச்சை பயிறு,1,32
White Pulses/வெள்ளை பயிறு,1,22
Zucchini/சுரைக்காய்,1,4 to 15
Beetroot/பீட்ரூட்,1,15 to 18
White Pumpkin/வெள்ளை பூசணிக்காய்,1,8 to 10
Sambar Pumpkin/சாம்பார் பூசணிக்காய்,1,6 to 8
Kalla Manga/கள்ள மாங்காய்,1,–
OOrutu Manga/உருட்டு மாங்காய்,1,65
Potato/உருளைக்கிழங்கு 1st Quality,1,15 to 35
Potato/உருளைக்கிழங்கு 2nd Quality,1,10 to 30
Coconut/தேங்காய் 1st Quality,1,25 to 35
Coconut/தேங்காய் 2nd Quality,1,20 to 30
Green Chilli/பச்சை மிளகாய்,1,19 to 27
Cauliflower/காலிஃபிளவர் 1st Quality,1,25 to 30
Cauliflower/காலிஃபிளவர் 2nd Quality,1,20 to 25
Green Brinjal/கத்தரிக்காய் பச்சை,1,25 to 35
Blue Brinjal/கத்தரிக்காய் நீலம்,1,15 to 20
Banana Thar/வாழை தார்,1,24 to 26
Curry Leaves/கறிவேப்பிலை,1,15 to 20
Gourd/புடலங்காய் 1st Quality,1,5 to 7
Gourd/புடலங்காய் 2nd Quality,1,–
Coriander/கொத்தமல்லி 1st Quality,1,15 to 25
Coriander/கொத்தமல்லி 2nd Quality,1,10 to 20
Radish/முள்ளங்கி 1st Quality,1,20 to 30
Radish/முள்ளங்கி 2nd Quality,1,15 to 25
Ginger/இஞ்சி,1,60 to 160
Butter Beans/பட்டர் பீன்ஸ்,1,80 to 140
Cabbage/முட்டை கோஸ்,1,15 to 20
Green Peas/பச்சை பட்டாணி,1,50 to 80
Bitter Gourd/பாகற்காய்,1,26 to 28
Nookal/நூக்கல்,1,20 to 30
Chaw Chaw/சவ்சவ்,1,18 to 20
Kovakkai/கோவக்காய்,1,21 to 35
Cluster Beans/கொத்தவரங்காய்,1,13 to 20
Gooseberry/நெல்லிக்காய்,1,60 to 80
Narthangai/நார்த்தங்காய்,1,40
Cucumber/வெள்ளரிக்காய்,1,27
Garlic/வெள்ளை பூண்டு,1,100 to 180
Gourd/பீர்க்கங்காய்,1,25 to 30
Small Tuber/சிறு கிழங்கு,1,40 to 50
Colocasia/சேப்பங்கிழங்கு,1,–
Soya beans/சோயா பீன்ஸ்,1,80 to 140
Butter Soya/பட்டர் சோயா,1,80 to 140
Senai Kilangu/சேனை கிழங்கு,1,20 to 25
Karunai Kilangu/கருணைக்கிழங்கு,1,60
Drumstick beans/முருங்கை பீன்ஸ்,1,50
Mangai Inji/மாங்காய் இஞ்சி,1,100 to 120