Belt Beans / Avarai Belt,1,30
Beans Kolee / Avarai Kolee,1,30
Avarai ottu,1,–
Beans,1,50
Beetroot,1,8
Bellary / Big Onion,1,40
Cauliflower,1 Flower,15
Small Onion / Chinna Vengayam,1,40
Chaw Chaw,1,20
Disco Brinjal / Kaththari kai Disco,1,30
Green Brinjal / Kaththari Kai Pachai,1,30
Cluster Beans / Kothavarai,1,20
Samba Chilli / Milagai Samba,1,20
Round Chilli / Milagai Urundai,1,20
Radish / Mullangi,1,8
Drumstick / Murungai Chedi,1,70
Drumstick / Murungai Maram,1,70
Nelli Kai,1,22
Bitter Gourd / Pakar kai,1,–
Perkangkai,1,20
Snake Guard / Pudalai,1,22
Red Pumpkin / Red Pusanikkai,1,6
Sambar Vellari,1,10
Bottle gourd / Suraikai,1,20
Tomato / Thakkali,1,20
Thatta payaru,1,30
Lady’s Finger / Venda Kai,1,20
Lemon / Elumbichai,1,70