Lemon/எலுமிச்சை,1, 100 to 130
Tomato/தக்காளி 1st Quality,1,6 to 10
Tomato/தக்காளி 2nd Quality,1,–
Small Onion/சிறிய வெங்காயம்,1,15 to 30
Bellary/பெல்லாரி,1,10 to 14
Beans/பீன்ஸ் 1st Quality,1,25 to 48
Beans/பீன்ஸ் 2nd Quality,1,20 to 43
Carrot/கேரட் 1st Quality,1,15 to 25
Carrot/கேரட் 2nd Quality,1,10 to 20
Lady Finger/வெண்டைக்காய்,1,20 to 23
Tree Drumstick/மரம் முருங்கை,1,7
Plant Drumstick/செடி முருங்கை,1,8
Beans/அவரை ஒட்டு,1,15 to 35
Green Pulses/பச்சை பயிறு,1,25
White Pulses/வெள்ளை பயிறு,1,28
Zucchini/சுரைக்காய்,1,2
Beetroot/பீட்ரூட்,1,3.50
White Pumpkin/வெள்ளை பூசணிக்காய்,1,3 to 7
Sambar Pumpkin/சாம்பார் பூசணிக்காய்,1,2 to 3
Kalla Manga/கள்ள மாங்காய்,1,20
OOrutu Manga/உருட்டு மாங்காய்,1,15 to 18
Potato/உருளைக்கிழங்கு 1st Quality,1,20 to 25
Potato/உருளைக்கிழங்கு 2nd Quality,1,15 to 20
Coconut/தேங்காய் 1st Quality,1,35 to 40
Coconut/தேங்காய் 2nd Quality,1,30 to 35
Green Chilli/பச்சை மிளகாய்,1,7 to 30
Cauliflower/காலிஃபிளவர் 1st Quality,1,10 to 15
Cauliflower/காலிஃபிளவர் 2nd Quality,1,–
Green Brinjal/கத்தரிக்காய் பச்சை,1,20 to 25
Blue Brinjal/கத்தரிக்காய் நீலம்,1,10
Banana Thar/வாழை தார்,1,20 to 24
Curry Leaves/கறிவேப்பிலை,1,15 to 20
Gourd/புடலங்காய் 1st Quality,1,9
Gourd/புடலங்காய் 2nd Quality,1,–
Coriander/கொத்தமல்லி 1st Quality,1,15 to 20
Coriander/கொத்தமல்லி 2nd Quality,1,10 to 15
Radish/முள்ளங்கி 1st Quality,1,15 to 20
Radish/முள்ளங்கி 2nd Quality,1,10 to 15
Ginger/இஞ்சி,1,45 to 50
Butter Beans/பட்டர் பீன்ஸ்,1,50 to 80
Cabbage/முட்டை கோஸ்,1,3 to 7
Green Peas/பச்சை பட்டாணி,1,30 to 40
Bitter Gourd/பாகற்காய்,1,14
Nookal/நூக்கல்,1,15 to 20
Chaw Chaw/சவ்சவ்,1,23 to 25
Kovakkai/கோவக்காய்,1,9
Cluster Beans/கொத்தவரங்காய்,1,10 to 15
Gooseberry/நெல்லிக்காய்,1,50
Narthangai/நார்த்தங்காய்,1,100
Cucumber/வெள்ளரிக்காய்,1,20 to 25
Garlic/வெள்ளை பூண்டு,1,50 to 80
Gourd/பீர்க்கங்காய்,1,30
Small Tuber/சிறு கிழங்கு,1,30 to 40
Colocasia/சேப்பங்கிழங்கு,1,30 to 40
Soya beans/சோயா பீன்ஸ்,1,50 to 80
Butter Soya/பட்டர் சோயா,1,50 to 80
Senai Kilangu/சேனை கிழங்கு,1,20 to 25
Karunai Kilangu/கருணைக்கிழங்கு,1,20 to 25
Drumstick beans/முருங்கை பீன்ஸ்,1,30
Mangai Inji/மாங்காய் இஞ்சி,1,40 to 45