Lemon/எலுமிச்சை,1,70 to 120
Tomato/தக்காளி 1st Quality,1,35 to 40
Tomato/தக்காளி 2nd Quality,1,30 to 35
Small Onion/சிறிய வெங்காயம்,1,25 to 45
Bellary/பெல்லாரி,1,16 to 20
Beans/பீன்ஸ் 1st Quality,1,45 to 95
Beans/பீன்ஸ் 2nd Quality,1,40 to 90
Carrot/கேரட் 1st Quality,1,35 to 55
Carrot/கேரட் 2nd Quality,1,30 to 50
Lady Finger/வெண்டைக்காய்,1,12 to 18
Tree Drumstick/மரம் முருங்கை,1,10
Plant Drumstick/முருங்கை,1,15
Beans/அவரை ஒட்டு,1,45 to 70
Green Pulses/பச்சை பயிறு,1,32
White Pulses/வெள்ளை பயிறு,1,22
Zucchini/சுரைக்காய்,1,10 to 15
Beetroot/பீட்ரூட்,1,15 to 25
White Pumpkin/வெள்ளை பூசணிக்காய்,1,8 to 10
Sambar Pumpkin/சாம்பார் பூசணிக்காய்,1,22 to 25
Kalla Manga/கள்ள மாங்காய்,1,10 to 18
OOrutu Manga/உருட்டு மாங்காய்,1,7 to 10
Potato/உருளைக்கிழங்கு 1st Quality,1,20 to 35
Potato/உருளைக்கிழங்கு 2nd Quality,1,15 to 30
Coconut/தேங்காய் 1st Quality,1,25 to 30
Coconut/தேங்காய் 2nd Quality,1,20 to 25
Green Chilli/பச்சை மிளகாய்,1,30 to 45
Cauliflower/காலிஃபிளவர் 1st Quality,1,25 to 30
Cauliflower/காலிஃபிளவர் 2nd Quality,1,20 to 25
Green Brinjal/கத்தரிக்காய் பச்சை,1,15 to 25
Blue Brinjal/கத்தரிக்காய் நீலம்,1,15 to 25
Banana Thar/வாழை தார்,1,20 to 22
Curry Leaves/கறிவேப்பிலை,1,30 to 35
Gourd/புடலங்காய் 1st Quality,1,14 to 25
Gourd/புடலங்காய் 2nd Quality,1,10 to 20
Coriander/கொத்தமல்லி 1st Quality,1,25 to 40
Coriander/கொத்தமல்லி 2nd Quality,1,20 to 35
Radish/முள்ளங்கி 1st Quality,1,20 to 25
Radish/முள்ளங்கி 2nd Quality,1,15 to 20
Ginger/இஞ்சி,1,100 to 120
Butter Beans/பட்டர் பீன்ஸ்,1,140 to 180
Cabbage/முட்டை கோஸ்,1,30 to 35
Green Peas/பச்சை பட்டாணி,1,90 to 100
Bitter Gourd/பாகற்காய்,1,35 to 40
Nookal/நூக்கல்,1,35 to 40
Chaw Chaw/சவ்சவ்,1,33 to 40
Kovakkai/கோவக்காய்,1,14 to 26
Cluster Beans/கொத்தவரங்காய்,1,15 to 20
Gooseberry/நெல்லிக்காய்,1,50 to 55
Narthangai/நார்த்தங்காய்,1,80 to 100
Cucumber/வெள்ளரிக்காய்,1,27
Garlic/வெள்ளை பூண்டு,1,100
Gourd/பீர்க்கங்காய்,1,20 to 30
Small Tuber/சிறு கிழங்கு,1,20 to 30
Colocasia/சேப்பங்கிழங்கு,1,20 to 35
Soya beans/சோயா பீன்ஸ்,1,140 to 180
Butter Soya/பட்டர் சோயா,1,120 to 140
Senai Kilangu/சேனை கிழங்கு,1,15 to 20
Karunai Kilangu/கருணைக்கிழங்கு,1,25 to 35
Drumstick beans/முருங்கை பீன்ஸ்,1,70
Mangai Inji/மாங்காய் இஞ்சி,1,60