Lemon/எலுமிச்சை,1,15 to 40
Tomato/தக்காளி 1st Quality,1,15 to 20
Tomato/தக்காளி 2nd Quality,1,10 to 15
Small Onion/சிறிய வெங்காயம்,1,150 to 180
Bellary/பெல்லாரி,1,100 to 150
Beans/பீன்ஸ் 1st Quality,1,30 to 40
Beans/பீன்ஸ் 2nd Quality,1,25 to 35
Carrot/கேரட் 1st Quality,1,30 to 50
Carrot/கேரட் 2nd Quality,1,25 to 45
Lady Finger/வெண்டைக்காய்,1,20
Tree Drumstick/மரம் முருங்கை,1,170
Plant Drumstick/முருங்கை,1,200
Beans/அவரை ஒட்டு,1,30 to 45
Green Pulses/பச்சை பயிறு,1,33
White Pulses/வெள்ளை பயிறு,1,10
Zucchini/சுரைக்காய்,1,7 to 17
Beetroot/பீட்ரூட்,1,26 to 27
White Pumpkin/வெள்ளை பூசணிக்காய்,1,15 to 20
Sambar Pumpkin/சாம்பார் பூசணிக்காய்,1,10 to 13
Kalla Manga/கள்ள மாங்காய்,1,80
OOrutu Manga/உருட்டு மாங்காய்,1,60 to 90
Potato/உருளைக்கிழங்கு 1st Quality,1,25 to 45
Potato/உருளைக்கிழங்கு 2nd Quality,1,20 to 40
Coconut/தேங்காய் 1st Quality,1,25 to 35
Coconut/தேங்காய் 2nd Quality,1,20 to 30
Green Chilli/பச்சை மிளகாய்,1,25 to 38
Cauliflower/காலிஃபிளவர் 1st Quality,1,15 to 20
Cauliflower/காலிஃபிளவர் 2nd Quality,1,10 to 15
Green Brinjal/கத்தரிக்காய் பச்சை,1,50 to 60
Blue Brinjal/கத்தரிக்காய் நீலம்,1,35 to 50
Banana Thar/வாழை தார்,1,17 to 25
Curry Leaves/கறிவேப்பிலை,1,15 to 20
Gourd/புடலங்காய் 1st Quality,1,15 to 20
Gourd/புடலங்காய் 2nd Quality,1,10 to 15
Coriander/கொத்தமல்லி 1st Quality,1,30 to 40
Coriander/கொத்தமல்லி 2nd Quality,1,25 to 35
Radish/முள்ளங்கி 1st Quality,1,20 to 25
Radish/முள்ளங்கி 2nd Quality,1,15 to 20
Ginger/இஞ்சி,1,50 to 130
Butter Beans/பட்டர் பீன்ஸ்,1,100
Cabbage/முட்டை கோஸ்,1,25 to 35
Green Peas/பச்சை பட்டாணி,1,50 to 60
Bitter Gourd/பாகற்காய்,1,25 to 35
Nookal/நூக்கல்,1,30 to 40
Chaw Chaw/சவ்சவ்,1,10 to 13
Kovakkai/கோவக்காய்,1,30 to 33
Cluster Beans/கொத்தவரங்காய்,1,25 to 30
Gooseberry/நெல்லிக்காய்,1,15 to 20
Narthangai/நார்த்தங்காய்,1,30 to 50
Cucumber/வெள்ளரிக்காய்,1,25
Garlic/வெள்ளை பூண்டு,1,100 to 180
Gourd/பீர்க்கங்காய்,1,18 to 20
Small Tuber/சிறு கிழங்கு,1,–
Colocasia/சேப்பங்கிழங்கு,1,35 to 45
Soya beans/சோயா பீன்ஸ்,1,80 to 100
Butter Soya/பட்டர் சோயா,1,80 to 100
Senai Kilangu/சேனை கிழங்கு,1,20 to 30
Karunai Kilangu/கருணைக்கிழங்கு,1,35 to 45
Drumstick beans/முருங்கை பீன்ஸ்,1,25 to 30
Mangai Inji/மாங்காய் இஞ்சி,1,50 to 60