Lemon/எலுமிச்சை,1,70 to 90
Tomato/தக்காளி 1st Quality,1,6 to 10
Tomato/தக்காளி 2nd Quality,1,–
Small Onion/சிறிய வெங்காயம்,1,20 to 45
Bellary/பெல்லாரி,1,20 to 26
Beans/பீன்ஸ் 1st Quality,1,20 to 50
Beans/பீன்ஸ் 2nd Quality,1,15 to 45
Carrot/கேரட் 1st Quality,1,30 to 50
Carrot/கேரட் 2nd Quality,1,25 to 45
Lady Finger/வெண்டைக்காய்,1,11
Tree Drumstick/மரம் முருங்கை,1,25
Plant Drumstick/முருங்கை,1,37
Beans/அவரை ஒட்டு,1,30 to 40
Green Pulses/பச்சை பயிறு,1,25
White Pulses/வெள்ளை பயிறு,1,15
Zucchini/சுரைக்காய்,1,5 to 18
Beetroot/பீட்ரூட்,1,6
White Pumpkin/வெள்ளை பூசணிக்காய்,1,5 to 7
Sambar Pumpkin/சாம்பார் பூசணிக்காய்,1,3 to 4
Kalla Manga/கள்ள மாங்காய்,1,45 to 55
OOrutu Manga/உருட்டு மாங்காய்,1,50
Potato/உருளைக்கிழங்கு 1st Quality,1,25 to 30
Potato/உருளைக்கிழங்கு 2nd Quality,1,20 to 25
Coconut/தேங்காய் 1st Quality,1,20 to 25
Coconut/தேங்காய் 2nd Quality,1,15 to 20
Green Chilli/பச்சை மிளகாய்,1,13 to 14
Cauliflower/காலிஃபிளவர் 1st Quality,1,10 to 15
Cauliflower/காலிஃபிளவர் 2nd Quality,1,–
Green Brinjal/கத்தரிக்காய் பச்சை,1,25 to 30
Blue Brinjal/கத்தரிக்காய் நீலம்,1,10
Banana Thar/வாழை தார்,1,10 to 13
Curry Leaves/கறிவேப்பிலை,1,10 to 15
Gourd/புடலங்காய் 1st Quality,1,13
Gourd/புடலங்காய் 2nd Quality,1,10
Coriander/கொத்தமல்லி 1st Quality,1,80 to 100
Coriander/கொத்தமல்லி 2nd Quality,1,75 to 95
Radish/முள்ளங்கி 1st Quality,1,20 to 35
Radish/முள்ளங்கி 2nd Quality,1,15 to 30
Ginger/இஞ்சி,1,50 to 80
Butter Beans/பட்டர் பீன்ஸ்,1,80 to 100
Cabbage/முட்டை கோஸ்,1,8 to 10
Green Peas/பச்சை பட்டாணி,1,150 to 180
Bitter Gourd/பாகற்காய்,1,14
Nookal/நூக்கல்,1,20 to 30
Chaw Chaw/சவ்சவ்,1,8
Kovakkai/கோவக்காய்,1,26
Cluster Beans/கொத்தவரங்காய்,1,20 to 25
Gooseberry/நெல்லிக்காய்,1,20 to 25
Narthangai/நார்த்தங்காய்,1,25
Cucumber/வெள்ளரிக்காய்,1,22
Garlic/வெள்ளை பூண்டு,1,80 to 100
Gourd/பீர்க்கங்காய்,1,20 to 25
Small Tuber/சிறு கிழங்கு,1,–
Colocasia/சேப்பங்கிழங்கு,1,20 to 25
Soya beans/சோயா பீன்ஸ்,1,80 to 100
Butter Soya/பட்டர் சோயா,1,80 to 100
Senai Kilangu/சேனை கிழங்கு,1,25 to 30
Karunai Kilangu/கருணைக்கிழங்கு,1,25 to 30
Drumstick beans/முருங்கை பீன்ஸ்,1,50 to 60
Mangai Inji/மாங்காய் இஞ்சி,1,40 to 50