Lemon/எலுமிச்சை,1,80 to 160
Tomato/தக்காளி 1st Quality,1,50 to 60
Tomato/தக்காளி 2nd Quality,1,45 to 55
Small Onion/சிறிய வெங்காயம்,1,25 to 52
Bellary/பெல்லாரி,1,15 to 21
Beans/பீன்ஸ் 1st Quality,1,50 to 95
Beans/பீன்ஸ் 2nd Quality,1,45 to 90
Carrot/கேரட் 1st Quality,1,40 to 50
Carrot/கேரட் 2nd Quality,1,35 to 45
Lady Finger/வெண்டைக்காய்,1,15 to 22
Tree Drumstick/மரம் முருங்கை,1,9
Plant Drumstick/முருங்கை,1,12
Beans/அவரை ஒட்டு,1,30 to 70
Green Pulses/பச்சை பயிறு,1,15
White Pulses/வெள்ளை பயிறு,1,15
Zucchini/சுரைக்காய்,1,9 to 20
Beetroot/பீட்ரூட்,1,15 to 20
White Pumpkin/வெள்ளை பூசணிக்காய்,1,8 to 15
Sambar Pumpkin/சாம்பார் பூசணிக்காய்,1,15 to 20
Kalla Manga/கள்ள மாங்காய்,1,8 to 15
OOrutu Manga/உருட்டு மாங்காய்,1,5 to 8
Potato/உருளைக்கிழங்கு 1st Quality,1,20 to 35
Potato/உருளைக்கிழங்கு 2nd Quality,1,15 to 30
Coconut/தேங்காய் 1st Quality,1,20 to 25
Coconut/தேங்காய் 2nd Quality,1,15 to 20
Green Chilli/பச்சை மிளகாய்,1,38 to 55
Cauliflower/காலிஃபிளவர் 1st Quality,1,25 to 35
Cauliflower/காலிஃபிளவர் 2nd Quality,1,20 to 30
Green Brinjal/கத்தரிக்காய் பச்சை,1,20 to 30
Blue Brinjal/கத்தரிக்காய் நீலம்,1,20 to 35
Banana Thar/வாழை தார்,1,15 to 18
Curry Leaves/கறிவேப்பிலை,1,25 to 35
Gourd/புடலங்காய் 1st Quality,1,20 to 25
Gourd/புடலங்காய் 2nd Quality,1,15 to 20
Coriander/கொத்தமல்லி 1st Quality,1,80 to 110
Coriander/கொத்தமல்லி 2nd Quality,1,75 to 115
Radish/முள்ளங்கி 1st Quality,1,25 to 30
Radish/முள்ளங்கி 2nd Quality,1,20 to 25
Ginger/இஞ்சி,1,140 to 160
Butter Beans/பட்டர் பீன்ஸ்,1,140 to 180
Cabbage/முட்டை கோஸ்,1,30 to 35
Green Peas/பச்சை பட்டாணி,1,180 to 240
Bitter Gourd/பாகற்காய்,1,–
Nookal/நூக்கல்,1,20 to 30
Chaw Chaw/சவ்சவ்,1,20 to 30
Kovakkai/கோவக்காய்,1,13 to 20
Cluster Beans/கொத்தவரங்காய்,1,15 to 20
Gooseberry/நெல்லிக்காய்,1,50 to 60
Narthangai/நார்த்தங்காய்,1,80 to 100
Cucumber/வெள்ளரிக்காய்,1,28 to 30
Garlic/வெள்ளை பூண்டு,1,100
Gourd/பீர்க்கங்காய்,1,–
Small Tuber/சிறு கிழங்கு,1,20 to 35
Colocasia/சேப்பங்கிழங்கு,1,20 to 40
Soya beans/சோயா பீன்ஸ்,1,140 to 180
Butter Soya/பட்டர் சோயா,1,140 to 180
Senai Kilangu/சேனை கிழங்கு,1,10 to 15
Karunai Kilangu/கருணைக்கிழங்கு,1,35 to 40
Drumstick beans/முருங்கை பீன்ஸ்,1,70
Mangai Inji/மாங்காய் இஞ்சி,1,60