Belt Beans / Avarai Belt,1,25
Beans Kolee / Avarai Kolee,1,25
Avarai ottu,1,–
Beans,1,35
Beetroot,1,8
Bellary / Big Onion,1,16
Cauliflower,1 Flower,15
Small Onion / Chinna Vengayam,1,22
Chaw Chaw,1,25
Disco Brinjal / Kaththari kai Disco,1,15
Green Brinjal / Kaththari Kai Pachai,1,15
Cluster Beans / Kothavarai,1,18
Samba Chilli / Milagai Samba,1,28
Round Chilli / Milagai Urundai,1,28
Radish / Mullangi,1,8
Drumstick / Murungai Chedi,1,22
Drumstick / Murungai Maram,1,15
Nelli Kai,1,27
Bitter Gourd / Pakar kai,1,–
Perkangkai,1,20
Snake Guard / Pudalai,1,12
Red Pumpkin / Red Pusanikkai,1,5
Sambar Vellari,1,7
Bottle gourd / Suraikai,1,6
Tomato / Thakkali,1,5
Thatta payaru,1,17
Lady’s Finger / Venda Kai,1,20
Lemon / Elumbichai,1,120