Lemon/எலுமிச்சை,1,70 to 90
Tomato/தக்காளி 1st Quality,1,20 to 25
Tomato/தக்காளி 2nd Quality,1,15 to 20
Small Onion/சிறிய வெங்காயம்,1,25 to 50
Bellary/பெல்லாரி,1,19 to 25
Beans/பீன்ஸ் 1st Quality,1,25 to 50
Beans/பீன்ஸ் 2nd Quality,1,20 to 45
Carrot/கேரட் 1st Quality,1,40 to 55
Carrot/கேரட் 2nd Quality,1,35 to 50
Lady Finger/வெண்டைக்காய்,1,22 to 25
Tree Drumstick/மரம் முருங்கை,1,18
Plant Drumstick/முருங்கை,1,28
Beans/அவரை ஒட்டு,1,25 to 30
Green Pulses/பச்சை பயிறு,1,17
White Pulses/வெள்ளை பயிறு,1,15
Zucchini/சுரைக்காய்,1,7 to 18
Beetroot/பீட்ரூட்,1,16 to 20
White Pumpkin/வெள்ளை பூசணிக்காய்,1,8 to 16
Sambar Pumpkin/சாம்பார் பூசணிக்காய்,1,10 to 15
Kalla Manga/கள்ள மாங்காய்,1,30 to 35
OOrutu Manga/உருட்டு மாங்காய்,1,25 to 30
Potato/உருளைக்கிழங்கு 1st Quality,1,15 to 25
Potato/உருளைக்கிழங்கு 2nd Quality,1,10 to 20
Coconut/தேங்காய் 1st Quality,1,20 to 25
Coconut/தேங்காய் 2nd Quality,1,15 to 20
Green Chilli/பச்சை மிளகாய்,1,18 to 30
Cauliflower/காலிஃபிளவர் 1st Quality,1,25 to 30
Cauliflower/காலிஃபிளவர் 2nd Quality,1,20 to 25
Green Brinjal/கத்தரிக்காய் பச்சை,1,20 to 25
Blue Brinjal/கத்தரிக்காய் நீலம்,1,15 to 25
Banana Thar/வாழை தார்,1,24 to 26
Curry Leaves/கறிவேப்பிலை,1,15 to 20
Gourd/புடலங்காய் 1st Quality,1,10 to 12
Gourd/புடலங்காய் 2nd Quality,1,–
Coriander/கொத்தமல்லி 1st Quality,1,25 to 35
Coriander/கொத்தமல்லி 2nd Quality,1,20 to 30
Radish/முள்ளங்கி 1st Quality,1,30 to 40
Radish/முள்ளங்கி 2nd Quality,1,25 to 35
Ginger/இஞ்சி,1,80 to 160
Butter Beans/பட்டர் பீன்ஸ்,1,80 to 140
Cabbage/முட்டை கோஸ்,1,25 to 35
Green Peas/பச்சை பட்டாணி,1,80 to 140
Bitter Gourd/பாகற்காய்,1,25 to 30
Nookal/நூக்கல்,1,35 to 40
Chaw Chaw/சவ்சவ்,1,20 to 25
Kovakkai/கோவக்காய்,1,15 to 30
Cluster Beans/கொத்தவரங்காய்,1,25 to 30
Gooseberry/நெல்லிக்காய்,1,80 to 100
Narthangai/நார்த்தங்காய்,1,80
Cucumber/வெள்ளரிக்காய்,1,36
Garlic/வெள்ளை பூண்டு,1,100 to 180
Gourd/பீர்க்கங்காய்,1,20 to 35
Small Tuber/சிறு கிழங்கு,1,20 to 40
Colocasia/சேப்பங்கிழங்கு,1,35
Soya beans/சோயா பீன்ஸ்,1,80 to 140
Butter Soya/பட்டர் சோயா,1,80 to 140
Senai Kilangu/சேனை கிழங்கு,1,20 to 25
Karunai Kilangu/கருணைக்கிழங்கு,1,55 to 60
Drumstick beans/முருங்கை பீன்ஸ்,1,50
Mangai Inji/மாங்காய் இஞ்சி,1,150 to 200