Lemon/எலுமிச்சை,1,10 to 20
Tomato/தக்காளி 1st Quality,1,4 to 5
Tomato/தக்காளி 2nd Quality,1,–
Small Onion/சிறிய வெங்காயம்,1,30 to 45
Bellary/பெல்லாரி,1,39 to 45
Beans/பீன்ஸ் 1st Quality,1,7 to 15
Beans/பீன்ஸ் 2nd Quality,1,–
Carrot/கேரட் 1st Quality,1,30 to 35
Carrot/கேரட் 2nd Quality,1,25 to 30
Lady Finger/வெண்டைக்காய்,1,10
Tree Drumstick/மரம் முருங்கை,1,50 to 60
Plant Drumstick/முருங்கை,1,70
Beans/அவரை ஒட்டு,1,5 to 10
Green Pulses/பச்சை பயிறு,1,10
White Pulses/வெள்ளை பயிறு,1,14
Zucchini/சுரைக்காய்,1,1.50
Beetroot/பீட்ரூட்,1,4
White Pumpkin/வெள்ளை பூசணிக்காய்,1,2 to 3
Sambar Pumpkin/சாம்பார் பூசணிக்காய்,1,4
Kalla Manga/கள்ள மாங்காய்,1,140
OOrutu Manga/உருட்டு மாங்காய்,1,130
Potato/உருளைக்கிழங்கு 1st Quality,1,15 to 22
Potato/உருளைக்கிழங்கு 2nd Quality,1,10
Coconut/தேங்காய் 1st Quality,1,45 to 50
Coconut/தேங்காய் 2nd Quality,1,40 to 45
Green Chilli/பச்சை மிளகாய்,1,8 to 10
Cauliflower/காலிஃபிளவர் 1st Quality,1,15 to 20
Cauliflower/காலிஃபிளவர் 2nd Quality,1,10
Green Brinjal/கத்தரிக்காய் பச்சை,1,10
Blue Brinjal/கத்தரிக்காய் நீலம்,1,5 to 10
Banana Thar/வாழை தார்,1,25 to 30
Curry Leaves/கறிவேப்பிலை,1,15 to 20
Gourd/புடலங்காய் 1st Quality,1,3
Gourd/புடலங்காய் 2nd Quality,1,–
Coriander/கொத்தமல்லி 1st Quality,1,8 to 10
Coriander/கொத்தமல்லி 2nd Quality,1,–
Radish/முள்ளங்கி 1st Quality,1,5 to 10
Radish/முள்ளங்கி 2nd Quality,1,–
Ginger/இஞ்சி,1,25 to 30
Butter Beans/பட்டர் பீன்ஸ்,1,80 to 100
Cabbage/முட்டை கோஸ்,1,10 to 15
Green Peas/பச்சை பட்டாணி,1,40 to 50
Bitter Gourd/பாகற்காய்,1,10 to 12
Nookal/நூக்கல்,1,15 to 20
Chaw Chaw/சவ்சவ்,1,5 to 6
Kovakkai/கோவக்காய்,1,16
Cluster Beans/கொத்தவரங்காய்,1,10 to 15
Gooseberry/நெல்லிக்காய்,1,35 to 40
Narthangai/நார்த்தங்காய்,1,40
Cucumber/வெள்ளரிக்காய்,1,8
Garlic/வெள்ளை பூண்டு,1,40 to 80
Gourd/பீர்க்கங்காய்,1,10 to 12
Small Tuber/சிறு கிழங்கு,1,30
Colocasia/சேப்பங்கிழங்கு,1,25
Soya beans/சோயா பீன்ஸ்,1,90
Butter Soya/பட்டர் சோயா,1,80
Senai Kilangu/சேனை கிழங்கு,1,25
Karunai Kilangu/கருணைக்கிழங்கு,1,30
Drumstick beans/முருங்கை பீன்ஸ்,1,15
Mangai Inji/மாங்காய் இஞ்சி,1,25 to 30