Lemon/எலுமிச்சை,1,50 to 90
Tomato/தக்காளி 1st Quality,1,40 to 50
Tomato/தக்காளி 2nd Quality,1,35 to 45
Small Onion/சிறிய வெங்காயம்,1,45 to 58
Bellary/பெல்லாரி,1,20 to 25
Beans/பீன்ஸ் 1st Quality,1,100 to 140
Beans/பீன்ஸ் 2nd Quality,1,95 to 135
Carrot/கேரட் 1st Quality,1,55 to 70
Carrot/கேரட் 2nd Quality,1,50 to 65
Lady Finger/வெண்டைக்காய்,1,35 to 38
Tree Drumstick/மரம் முருங்கை,1,14
Plant Drumstick/முருங்கை,1,24
Beans/அவரை ஒட்டு,1,40 to 100
Green Pulses/பச்சை பயிறு,1,27
White Pulses/வெள்ளை பயிறு,1,20
Zucchini/சுரைக்காய்,1,9 to 20
Beetroot/பீட்ரூட்,1,17 to 32
White Pumpkin/வெள்ளை பூசணிக்காய்,1,8 to 16
Sambar Pumpkin/சாம்பார் பூசணிக்காய்,1,15 to 22
Kalla Manga/கள்ள மாங்காய்,1,8 to 15
OOrutu Manga/உருட்டு மாங்காய்,1,5 to 8
Potato/உருளைக்கிழங்கு 1st Quality,1,20 to 35
Potato/உருளைக்கிழங்கு 2nd Quality,1,15 to 30
Coconut/தேங்காய் 1st Quality,1,20 to 25
Coconut/தேங்காய் 2nd Quality,1,15 to 20
Green Chilli/பச்சை மிளகாய்,1,38 to 50
Cauliflower/காலிஃபிளவர் 1st Quality,1,45 to 60
Cauliflower/காலிஃபிளவர் 2nd Quality,1,40 to 55
Green Brinjal/கத்தரிக்காய் பச்சை,1,20 to 35
Blue Brinjal/கத்தரிக்காய் நீலம்,1,20 to 35
Banana Thar/வாழை தார்,1,15 to 18
Curry Leaves/கறிவேப்பிலை,1,25 to 40
Gourd/புடலங்காய் 1st Quality,1,25 to 35
Gourd/புடலங்காய் 2nd Quality,1,20 to 30
Coriander/கொத்தமல்லி 1st Quality,1,150 to 200
Coriander/கொத்தமல்லி 2nd Quality,1,145 to 195
Radish/முள்ளங்கி 1st Quality,1,30 to 40
Radish/முள்ளங்கி 2nd Quality,1,25 to 35
Ginger/இஞ்சி,1,140 to 160
Butter Beans/பட்டர் பீன்ஸ்,1,180 to 240
Cabbage/முட்டை கோஸ்,1,35 to 40
Green Peas/பச்சை பட்டாணி,1,180 to 240
Bitter Gourd/பாகற்காய்,1,–
Nookal/நூக்கல்,1,40 to 50
Chaw Chaw/சவ்சவ்,1,30 to 40
Kovakkai/கோவக்காய்,1,35
Cluster Beans/கொத்தவரங்காய்,1,20 to 35
Gooseberry/நெல்லிக்காய்,1,50 to 60
Narthangai/நார்த்தங்காய்,1,80
Cucumber/வெள்ளரிக்காய்,1,32
Garlic/வெள்ளை பூண்டு,1,100
Gourd/பீர்க்கங்காய்,1,20
Small Tuber/சிறு கிழங்கு,1,20 to 35
Colocasia/சேப்பங்கிழங்கு,1,20 to 45
Soya beans/சோயா பீன்ஸ்,1,180 to 240
Butter Soya/பட்டர் சோயா,1,180 to 240
Senai Kilangu/சேனை கிழங்கு,1,15 to 25
Karunai Kilangu/கருணைக்கிழங்கு,1,35 to 45
Drumstick beans/முருங்கை பீன்ஸ்,1,110
Mangai Inji/மாங்காய் இஞ்சி,1,100