Lemon,1,40 to 50
Tomato/Thakkali 1st Quality,1,10
Tomato/Thakkali 2nd Quality,1,–
Small Onion,1,45 to 55
Bellary (Big Onion),1,10 to 12
Beans 1st Quality,–,95
Beans 2nd Quality,1,90
Carrot 1st Quality,1,65 to 80
Carrot 2nd Quality,1,60 to 75
Vendai Kai/Lady Finger,1,10
Maram Murungai,1,10 to 13
Chedi Murungai,1,15 to 20
Avarai Ottu,1,25
Pachai Payaru,1,20
Vellai Payaru,1,25
Suraikai,1,5
Beetroot,1,25
Sunami Sambar,1,20 to 25
Pusanikai,1,13 to 15
Kalla Manga/Mango,1,11
Orutu Manga/Mango,1,9
Potato 1st Quality,1,15 to 18
Potato 2nd Quality,1,10 to 13
Coconut 1st Quality,–,25
Coconut 2nd Quality,–,20
Green Chilli,1,18 to 45
Cauliflower 1st Quality,–,35 to 40
Cauliflower 2nd Quality,–,30 to 35
Katharikai Pachai,1,30
Katharikai ootha,1,26
Valai Thar,–,30
Karuveppilai/Curry Leaf,1 Kattu,25
Pudalangai/Snake gourd 1st Quality,1,25
Pudalangai/Snake gourd 2nd Quality,1,20
Kothamalli 1st Quality,1 kattu,70 to 80
Kothamalli 2nd Quality,1 kattu,65 to 75
Mullangi 1st Quality,1,30
Mullangi 2nd Quality,1,25
Inji/Ginger,1,25 to 30
Butter Beans,1,160
Mutta Kose,1,20 to 25
Pachai Pattani,1,80
Pakarkai,1,30 to 35
Nookal,1,30
Chaw Chaw,1,25
Kovakkai,1,15
Kothavarangai,1,10 to 15
Nellikai,1,35
Narthangai,1,40
Vellarikai,1,18