Lemon/எலுமிச்சை,1,50 to 70
Tomato/தக்காளி 1st Quality,1,10 to 15
Tomato/தக்காளி 2nd Quality,1,–
Small Onion/சிறிய வெங்காயம்,1,35 to 45
Bellary/பெல்லாரி,1,20 to 25
Beans/பீன்ஸ் 1st Quality,1,15 to 40
Beans/பீன்ஸ் 2nd Quality,1,10 to 35
Carrot/கேரட் 1st Quality,1,45 to 60
Carrot/கேரட் 2nd Quality,1,40 to 55
Lady Finger/வெண்டைக்காய்,1,12.50
Tree Drumstick/மரம் முருங்கை,1,60
Plant Drumstick/முருங்கை,1,85 to 120
Beans/அவரை ஒட்டு,1,25 to 35
Green Pulses/பச்சை பயிறு,1,12
White Pulses/வெள்ளை பயிறு,1,9
Zucchini/சுரைக்காய்,1,2 to 9
Beetroot/பீட்ரூட்,1,9
White Pumpkin/வெள்ளை பூசணிக்காய்,1,5 to 7
Sambar Pumpkin/சாம்பார் பூசணிக்காய்,1,3 to 5
Kalla Manga/கள்ள மாங்காய்,1,37
OOrutu Manga/உருட்டு மாங்காய்,1,30 to 43
Potato/உருளைக்கிழங்கு 1st Quality,1,25 to 35
Potato/உருளைக்கிழங்கு 2nd Quality,1,20 to 30
Coconut/தேங்காய் 1st Quality,1,25 to 30
Coconut/தேங்காய் 2nd Quality,1,20 to 25
Green Chilli/பச்சை மிளகாய்,1,9 to 13
Cauliflower/காலிஃபிளவர் 1st Quality,1,15 to 20
Cauliflower/காலிஃபிளவர் 2nd Quality,1,10 to 15
Green Brinjal/கத்தரிக்காய் பச்சை,1,15 to 30
Blue Brinjal/கத்தரிக்காய் நீலம்,1,10 to 15
Banana Thar/வாழை தார்,1,10 to 13
Curry Leaves/கறிவேப்பிலை,1,10 to 15
Gourd/புடலங்காய் 1st Quality,1, 4
Gourd/புடலங்காய் 2nd Quality,1,–
Coriander/கொத்தமல்லி 1st Quality,1,30 to 70
Coriander/கொத்தமல்லி 2nd Quality,1,25 to 65
Radish/முள்ளங்கி 1st Quality,1,10 to 15
Radish/முள்ளங்கி 2nd Quality,1,–
Ginger/இஞ்சி,1,60 to 70
Butter Beans/பட்டர் பீன்ஸ்,1,100 to 160
Cabbage/முட்டை கோஸ்,1,4 to 8
Green Peas/பச்சை பட்டாணி,1,160 to 220
Bitter Gourd/பாகற்காய்,1,13
Nookal/நூக்கல்,1,15 to 20
Chaw Chaw/சவ்சவ்,1,6 to 8
Kovakkai/கோவக்காய்,1,16 to 21
Cluster Beans/கொத்தவரங்காய்,1,8 to 10
Gooseberry/நெல்லிக்காய்,1,20 to 25
Narthangai/நார்த்தங்காய்,1,20 to 30
Cucumber/வெள்ளரிக்காய்,1,34
Garlic/வெள்ளை பூண்டு,1,80 to 100
Gourd/பீர்க்கங்காய்,1,10 to 15
Small Tuber/சிறு கிழங்கு,1,–
Colocasia/சேப்பங்கிழங்கு,1,20 to 25
Soya beans/சோயா பீன்ஸ்,1,100 to 120
Butter Soya/பட்டர் சோயா,1,100 to 160
Senai Kilangu/சேனை கிழங்கு,1,25 to 30
Karunai Kilangu/கருணைக்கிழங்கு,1,25 to 30
Drumstick beans/முருங்கை பீன்ஸ்,1,40
Mangai Inji/மாங்காய் இஞ்சி,1,80 to 100