Lemon/எலுமிச்சை,1,20 to 30
Tomato/தக்காளி 1st Quality,1,10 to 15
Tomato/தக்காளி 2nd Quality,1,–
Small Onion/சிறிய வெங்காயம்,1,25 to 40
Bellary/பெல்லாரி,1,15 to 25
Beans/பீன்ஸ் 1st Quality,1,30 to 50
Beans/பீன்ஸ் 2nd Quality,1,25 to 45
Carrot/கேரட் 1st Quality,1,30 to 40
Carrot/கேரட் 2nd Quality,1,25 to 35
Lady Finger/வெண்டைக்காய்,1,20 to 25
Tree Drumstick/மரம் முருங்கை,1,7
Plant Drumstick/முருங்கை,1,11
Beans/அவரை ஒட்டு,1,16 to 25
Green Pulses/பச்சை பயிறு,1,23 to 27
White Pulses/வெள்ளை பயிறு,1,15
Zucchini/சுரைக்காய்,1,8 to 21
Beetroot/பீட்ரூட்,1,18
White Pumpkin/வெள்ளை பூசணிக்காய்,1,10 to 12
Sambar Pumpkin/சாம்பார் பூசணிக்காய்,1,8 to 10
Kalla Manga/கள்ள மாங்காய்,1,25
OOrutu Manga/உருட்டு மாங்காய்,1,20
Potato/உருளைக்கிழங்கு 1st Quality,1,16 to 25
Potato/உருளைக்கிழங்கு 2nd Quality,1,15 to 20
Coconut/தேங்காய் 1st Quality,1,25 to 30
Coconut/தேங்காய் 2nd Quality,1,20 to 25
Green Chilli/பச்சை மிளகாய்,1,40 to 60
Cauliflower/காலிஃபிளவர் 1st Quality,1,15 to 20
Cauliflower/காலிஃபிளவர் 2nd Quality,1,10 to 15
Green Brinjal/கத்தரிக்காய் பச்சை,1,15 to 20
Blue Brinjal/கத்தரிக்காய் நீலம்,1,8 to 15
Banana Thar/வாழை தார்,1,20 to 25
Curry Leaves/கறிவேப்பிலை,1,15 to 20
Gourd/புடலங்காய் 1st Quality,1,16 to 20
Gourd/புடலங்காய் 2nd Quality,1,10 to 15
Coriander/கொத்தமல்லி 1st Quality,1,7 to 10
Coriander/கொத்தமல்லி 2nd Quality,1,–
Radish/முள்ளங்கி 1st Quality,1,15 to 20
Radish/முள்ளங்கி 2nd Quality,1,10 to 15
Ginger/இஞ்சி,1,50 to 60
Butter Beans/பட்டர் பீன்ஸ்,1,80 to 100
Cabbage/முட்டை கோஸ்,1,10 to 15
Green Peas/பச்சை பட்டாணி,1,100 to 150
Bitter Gourd/பாகற்காய்,1,35 to 40
Nookal/நூக்கல்,1,15 to 20
Chaw Chaw/சவ்சவ்,1,5 to 8
Kovakkai/கோவக்காய்,1,25 to 35
Cluster Beans/கொத்தவரங்காய்,1,20 to 25
Gooseberry/நெல்லிக்காய்,1,20 to 25
Narthangai/நார்த்தங்காய்,1,40
Cucumber/வெள்ளரிக்காய்,1,25 to 30
Garlic/வெள்ளை பூண்டு,1,50 to 80
Gourd/பீர்க்கங்காய்,1,15
Small Tuber/சிறு கிழங்கு,1,40 to 50
Colocasia/சேப்பங்கிழங்கு,1,35 to 40
Soya beans/சோயா பீன்ஸ்,1,50 to 80
Butter Soya/பட்டர் சோயா,1,50 to 80
Senai Kilangu/சேனை கிழங்கு,1,18 to 25
Karunai Kilangu/கருணைக்கிழங்கு,1,35 to 45
Drumstick beans/முருங்கை பீன்ஸ்,1,35
Mangai Inji/மாங்காய் இஞ்சி,1,80 to 100