Lemon/எலுமிச்சை,1,50
Tomato/தக்காளி 1st Quality,1,15 to 20
Tomato/தக்காளி 2nd Quality,1,10 to 15
Small Onion/சிறிய வெங்காயம்,1,35 to 56
Bellary/பெல்லாரி,1,13 to 18
Beans/பீன்ஸ் 1st Quality,1,35 to 65
Beans/பீன்ஸ் 2nd Quality,1,30 to 60
Carrot/கேரட் 1st Quality,1,25 to 40
Carrot/கேரட் 2nd Quality,1,20 to 35
Lady Finger/வெண்டைக்காய்,1,10
Tree Drumstick/மரம் முருங்கை,1,28
Plant Drumstick/முருங்கை,1,38
Beans/அவரை ஒட்டு,1,25
Green Pulses/பச்சை பயிறு,1,13
White Pulses/வெள்ளை பயிறு,1,6 to 8
Zucchini/சுரைக்காய்,1,3 .50
Beetroot/பீட்ரூட்,1,13
White Pumpkin/வெள்ளை பூசணிக்காய்,1,7 to 15
Sambar Pumpkin/சாம்பார் பூசணிக்காய்,1,6
Kalla Manga/கள்ள மாங்காய்,1,10
OOrutu Manga/உருட்டு மாங்காய்,1,12
Potato/உருளைக்கிழங்கு 1st Quality,1,18 to 25
Potato/உருளைக்கிழங்கு 2nd Quality,1,15 to 20
Coconut/தேங்காய் 1st Quality,1,30 to 35
Coconut/தேங்காய் 2nd Quality,1,25 to 30
Green Chilli/பச்சை மிளகாய்,1,28 to 34
Cauliflower/காலிஃபிளவர் 1st Quality,1,15 to 20
Cauliflower/காலிஃபிளவர் 2nd Quality,1,10 to 15
Green Brinjal/கத்தரிக்காய் பச்சை,1,30 to 40
Blue Brinjal/கத்தரிக்காய் நீலம்,1,15
Banana Thar/வாழை தார்,1,18 to 22
Curry Leaves/கறிவேப்பிலை,1,15
Gourd/புடலங்காய் 1st Quality,1,10
Gourd/புடலங்காய் 2nd Quality,1,–
Coriander/கொத்தமல்லி 1st Quality,1,70 to 80
Coriander/கொத்தமல்லி 2nd Quality,1,65 to 75
Radish/முள்ளங்கி 1st Quality,1,25 to 30
Radish/முள்ளங்கி 2nd Quality,1,20 to 25
Ginger/இஞ்சி,1,70 to 80
Butter Beans/பட்டர் பீன்ஸ்,1,80 to 90
Cabbage/முட்டை கோஸ்,1,10 to 15
Green Peas/பச்சை பட்டாணி,1,150
Bitter Gourd/பாகற்காய்,1,20 to 26
Nookal/நூக்கல்,1,25
Chaw Chaw/சவ்சவ்,1,4 to 10
Kovakkai/கோவக்காய்,1,4 to 12
Cluster Beans/கொத்தவரங்காய்,1,10 to 15
Gooseberry/நெல்லிக்காய்,1,20 to 25
Narthangai/நார்த்தங்காய்,1,75
Cucumber/வெள்ளரிக்காய்,1,10 to 17
Garlic/வெள்ளை பூண்டு,1,80 to 100
Gourd/பீர்க்கங்காய்,1,20 to 25
Small Tuber/சிறு கிழங்கு,1,25 to 30
Colocasia/சேப்பங்கிழங்கு,1,25 to 30
Soya beans/சோயா பீன்ஸ்,1,80 to 100
Butter Soya/பட்டர் சோயா,1,80 to 100
Senai Kilangu/சேனை கிழங்கு,1,16 to 20
Karunai Kilangu/கருணைக்கிழங்கு,1,30
Drumstick beans/முருங்கை பீன்ஸ்,1,30
Mangai Inji/மாங்காய் இஞ்சி,1,40