Lemon/எலுமிச்சை,1,70 to 100
Tomato/தக்காளி 1st Quality,1,10 to 12
Tomato/தக்காளி 2nd Quality,1,–
Small Onion/சிறிய வெங்காயம்,1,15 to 25
Bellary/பெல்லாரி,1,15 to 18
Beans/பீன்ஸ் 1st Quality,1,15 to 25
Beans/பீன்ஸ் 2nd Quality,1,10 to 15
Carrot/கேரட் 1st Quality,1,25 to 35
Carrot/கேரட் 2nd Quality,1,20 to 30
Lady Finger/வெண்டைக்காய்,1,10 to 15
Tree Drumstick/மரம் முருங்கை,1,10
Plant Drumstick/முருங்கை,1,16
Beans/அவரை ஒட்டு,1,20 to 25
Green Pulses/பச்சை பயிறு,1,28
White Pulses/வெள்ளை பயிறு,1,25
Zucchini/சுரைக்காய்,1,10 to 20
Beetroot/பீட்ரூட்,1,6
White Pumpkin/வெள்ளை பூசணிக்காய்,1,10 to 15
Sambar Pumpkin/சாம்பார் பூசணிக்காய்,1,5 to 7
Kalla Manga/கள்ள மாங்காய்,1,80
OOrutu Manga/உருட்டு மாங்காய்,1,67
Potato/உருளைக்கிழங்கு 1st Quality,1,25 to 32
Potato/உருளைக்கிழங்கு 2nd Quality,1,20 to 27
Coconut/தேங்காய் 1st Quality,1,25 to 30
Coconut/தேங்காய் 2nd Quality,1,20 to 25
Green Chilli/பச்சை மிளகாய்,1,20 to 25
Cauliflower/காலிஃபிளவர் 1st Quality,1,15 to 20
Cauliflower/காலிஃபிளவர் 2nd Quality,1,10 to 15
Green Brinjal/கத்தரிக்காய் பச்சை,1,20 to 25
Blue Brinjal/கத்தரிக்காய் நீலம்,1,15 to 20
Banana Thar/வாழை தார்,1,15 to 18
Curry Leaves/கறிவேப்பிலை,1,15 to 20
Gourd/புடலங்காய் 1st Quality,1,7 to 8
Gourd/புடலங்காய் 2nd Quality,1,–
Coriander/கொத்தமல்லி 1st Quality,1,20 to 25
Coriander/கொத்தமல்லி 2nd Quality,1,15 to 20
Radish/முள்ளங்கி 1st Quality,1,10 to 15
Radish/முள்ளங்கி 2nd Quality,1,–
Ginger/இஞ்சி,1,60 to 70
Butter Beans/பட்டர் பீன்ஸ்,1,60 to 80
Cabbage/முட்டை கோஸ்,1,10 to 15
Green Peas/பச்சை பட்டாணி,1,100 to 120
Bitter Gourd/பாகற்காய்,1,10
Nookal/நூக்கல்,1,15 to 20
Chaw Chaw/சவ்சவ்,1,8 to 10
Kovakkai/கோவக்காய்,1,35 to 38
Cluster Beans/கொத்தவரங்காய்,1,15 to 25
Gooseberry/நெல்லிக்காய்,1,20 to 25
Narthangai/நார்த்தங்காய்,1,20 to 25
Cucumber/வெள்ளரிக்காய்,1,18 to 20
Garlic/வெள்ளை பூண்டு,1,60 to 80
Gourd/பீர்க்கங்காய்,1,15 to 20
Small Tuber/சிறு கிழங்கு,1,–
Colocasia/சேப்பங்கிழங்கு,1,25 to 35
Soya beans/சோயா பீன்ஸ்,1,60 to 80
Butter Soya/பட்டர் சோயா,1,60 to 80
Senai Kilangu/சேனை கிழங்கு,1,25 to 35
Karunai Kilangu/கருணைக்கிழங்கு,1,25 to 35
Drumstick beans/முருங்கை பீன்ஸ்,1,20 to 30
Mangai Inji/மாங்காய் இஞ்சி,1,80 to 100