Lemon/எலுமிச்சை,1,30 to 50
Tomato/தக்காளி 1st Quality,1,15 to 20
Tomato/தக்காளி 2nd Quality,1,10 to 15
Small Onion/சிறிய வெங்காயம்,1,20 to 27
Bellary/பெல்லாரி,1,10 to 13
Beans/பீன்ஸ் 1st Quality,1,40 to 60
Beans/பீன்ஸ் 2nd Quality,1,35 to 55
Carrot/கேரட் 1st Quality,1,15 to 25
Carrot/கேரட் 2nd Quality,1,10 to 20
Lady Finger/வெண்டைக்காய்,1,4 to 6
Tree Drumstick/மரம் முருங்கை,1,12
Plant Drumstick/முருங்கை,1,21
Beans/அவரை ஒட்டு,1,23 to 60
Green Pulses/பச்சை பயிறு,1,9
White Pulses/வெள்ளை பயிறு,1,7
Zucchini/சுரைக்காய்,1,2
Beetroot/பீட்ரூட்,1,10
White Pumpkin/வெள்ளை பூசணிக்காய்,1,7 to 9
Sambar Pumpkin/சாம்பார் பூசணிக்காய்,1,7 to 9
Kalla Manga/கள்ள மாங்காய்,1,9
OOrutu Manga/உருட்டு மாங்காய்,1,7 to 10
Potato/உருளைக்கிழங்கு 1st Quality,1,20 to 30
Potato/உருளைக்கிழங்கு 2nd Quality,1,15 to 25
Coconut/தேங்காய் 1st Quality,1,30 to 35
Coconut/தேங்காய் 2nd Quality,1,25 to 30
Green Chilli/பச்சை மிளகாய்,1,15 to 25
Cauliflower/காலிஃபிளவர் 1st Quality,1,15 to 20
Cauliflower/காலிஃபிளவர் 2nd Quality,1,10 to 15
Green Brinjal/கத்தரிக்காய் பச்சை,1,10 to 15
Blue Brinjal/கத்தரிக்காய் நீலம்,1,10
Banana Thar/வாழை தார்,1,20 to 24
Curry Leaves/கறிவேப்பிலை,1,15 to 20
Gourd/புடலங்காய் 1st Quality,1,10
Gourd/புடலங்காய் 2nd Quality,1,–
Coriander/கொத்தமல்லி 1st Quality,1,70 to 80
Coriander/கொத்தமல்லி 2nd Quality,1,65 to 75
Radish/முள்ளங்கி 1st Quality,1,15 to 20
Radish/முள்ளங்கி 2nd Quality,1,10 to 15
Ginger/இஞ்சி,1,60 to 70
Butter Beans/பட்டர் பீன்ஸ்,1,100 to 120
Cabbage/முட்டை கோஸ்,1,5 to 7
Green Peas/பச்சை பட்டாணி,1,120
Bitter Gourd/பாகற்காய்,1,25 to 30
Nookal/நூக்கல்,1,20 to 25
Chaw Chaw/சவ்சவ்,1,5 to 15
Kovakkai/கோவக்காய்,1,6 to 7
Cluster Beans/கொத்தவரங்காய்,1,6 to 7
Gooseberry/நெல்லிக்காய்,1,30 to 40
Narthangai/நார்த்தங்காய்,1,80 to 100
Cucumber/வெள்ளரிக்காய்,1,8 to 10
Garlic/வெள்ளை பூண்டு,1,50 to 80
Gourd/பீர்க்கங்காய்,1,20 to 30
Small Tuber/சிறு கிழங்கு,1,15 to 20
Colocasia/சேப்பங்கிழங்கு,1,15 to 20
Soya beans/சோயா பீன்ஸ்,1,100 to 120
Butter Soya/பட்டர் சோயா,1,100 to 120
Senai Kilangu/சேனை கிழங்கு,1,15 to 20
Karunai Kilangu/கருணைக்கிழங்கு,1,15 to 20
Drumstick beans/முருங்கை பீன்ஸ்,1,30
Mangai Inji/மாங்காய் இஞ்சி,1,45