Lemon/எலுமிச்சை,1,50 to 80
Tomato/தக்காளி 1st Quality,1,10 to 12
Tomato/தக்காளி 2nd Quality,1,–
Small Onion/சிறிய வெங்காயம்,1,25 to 40
Bellary/பெல்லாரி,1,12 to 22
Beans/பீன்ஸ் 1st Quality,1,25 to 45
Beans/பீன்ஸ் 2nd Quality,1,20 to 40
Carrot/கேரட் 1st Quality,1,25 to 45
Carrot/கேரட் 2nd Quality,1,20 to 40
Lady Finger/வெண்டைக்காய்,1,10 to 13
Tree Drumstick/மரம் முருங்கை,1,45
Plant Drumstick/முருங்கை,1,85
Beans/அவரை ஒட்டு,1,15 to 25
Green Pulses/பச்சை பயிறு,1,13
White Pulses/வெள்ளை பயிறு,1,9
Zucchini/சுரைக்காய்,1,5 to 18
Beetroot/பீட்ரூட்,1,10
White Pumpkin/வெள்ளை பூசணிக்காய்,1,5 to 16
Sambar Pumpkin/சாம்பார் பூசணிக்காய்,1,2 to 5
Kalla Manga/கள்ள மாங்காய்,1,35 to 45
OOrutu Manga/உருட்டு மாங்காய்,1,20 to 30
Potato/உருளைக்கிழங்கு 1st Quality,1,20 to 35
Potato/உருளைக்கிழங்கு 2nd Quality,1,15 to 30
Coconut/தேங்காய் 1st Quality,1,20 to 30
Coconut/தேங்காய் 2nd Quality,1,15 to 25
Green Chilli/பச்சை மிளகாய்,1,14 to 22
Cauliflower/காலிஃபிளவர் 1st Quality,1,8 to 10
Cauliflower/காலிஃபிளவர் 2nd Quality,1,–
Green Brinjal/கத்தரிக்காய் பச்சை,1,25 to 40
Blue Brinjal/கத்தரிக்காய் நீலம்,1,15 to 25
Banana Thar/வாழை தார்,1,10 to 13
Curry Leaves/கறிவேப்பிலை,1,10 to 20
Gourd/புடலங்காய் 1st Quality,1,10 to 15
Gourd/புடலங்காய் 2nd Quality,1,–
Coriander/கொத்தமல்லி 1st Quality,1,20 to 25
Coriander/கொத்தமல்லி 2nd Quality,1,15 to 20
Radish/முள்ளங்கி 1st Quality,1,15 to 20
Radish/முள்ளங்கி 2nd Quality,1,10 to 15
Ginger/இஞ்சி,1,60 to 70
Butter Beans/பட்டர் பீன்ஸ்,1,100 to 150
Cabbage/முட்டை கோஸ்,1,10 to 12
Green Peas/பச்சை பட்டாணி,1,100 to 140
Bitter Gourd/பாகற்காய்,1,19 to 22
Nookal/நூக்கல்,1,20 to 30
Chaw Chaw/சவ்சவ்,1,10 to 12
Kovakkai/கோவக்காய்,1,30 to 35
Cluster Beans/கொத்தவரங்காய்,1,10 to 15
Gooseberry/நெல்லிக்காய்,1,25 to 30
Narthangai/நார்த்தங்காய்,1,30 to 45
Cucumber/வெள்ளரிக்காய்,1,30 to 35
Garlic/வெள்ளை பூண்டு,1,80 to 100
Gourd/பீர்க்கங்காய்,1,20 to 25
Small Tuber/சிறு கிழங்கு,1,25 to 30
Colocasia/சேப்பங்கிழங்கு,1,25 to 30
Soya beans/சோயா பீன்ஸ்,1,100 to 120
Butter Soya/பட்டர் சோயா,1,100 to 120
Senai Kilangu/சேனை கிழங்கு,1,25 to 30
Karunai Kilangu/கருணைக்கிழங்கு,1,20 to 25
Drumstick beans/முருங்கை பீன்ஸ்,1,30
Mangai Inji/மாங்காய் இஞ்சி,1,80