Lemon/எலுமிச்சை,1,30 to 50
Tomato/தக்காளி 1st Quality,1,10 to 12
Tomato/தக்காளி 2nd Quality,1,–
Small Onion/சிறிய வெங்காயம்,1,18 to 27
Bellary/பெல்லாரி,1,10 to 14
Beans/பீன்ஸ் 1st Quality,1,50 to 70
Beans/பீன்ஸ் 2nd Quality,1,45 to 65
Carrot/கேரட் 1st Quality,1,15 to 25
Carrot/கேரட் 2nd Quality,1,10 to 20
Lady Finger/வெண்டைக்காய்,1,4 to 5
Tree Drumstick/மரம் முருங்கை,1,25
Plant Drumstick/முருங்கை,1,21
Beans/அவரை ஒட்டு,1,20 to 55
Green Pulses/பச்சை பயிறு,1,11
White Pulses/வெள்ளை பயிறு,1,8
Zucchini/சுரைக்காய்,1,2 to 3
Beetroot/பீட்ரூட்,1,10 to 12
White Pumpkin/வெள்ளை பூசணிக்காய்,1,10
Sambar Pumpkin/சாம்பார் பூசணிக்காய்,1,8
Kalla Manga/கள்ள மாங்காய்,1,12
OOrutu Manga/உருட்டு மாங்காய்,1,8
Potato/உருளைக்கிழங்கு 1st Quality,1,18 to 23
Potato/உருளைக்கிழங்கு 2nd Quality,1,12 to 17
Coconut/தேங்காய் 1st Quality,1,30 to 35
Coconut/தேங்காய் 2nd Quality,1,25 to 30
Green Chilli/பச்சை மிளகாய்,1,30 to 40
Cauliflower/காலிஃபிளவர் 1st Quality,1,15 to 20
Cauliflower/காலிஃபிளவர் 2nd Quality,1,10 to 15
Green Brinjal/கத்தரிக்காய் பச்சை,1,10 to 12
Blue Brinjal/கத்தரிக்காய் நீலம்,1,10
Banana Thar/வாழை தார்,1,18 to 22
Curry Leaves/கறிவேப்பிலை,1,10 to 15
Gourd/புடலங்காய் 1st Quality,1,10 to 12
Gourd/புடலங்காய் 2nd Quality,1,–
Coriander/கொத்தமல்லி 1st Quality,1,80 to 100
Coriander/கொத்தமல்லி 2nd Quality,1,75 to 95
Radish/முள்ளங்கி 1st Quality,1,10 to 15
Radish/முள்ளங்கி 2nd Quality,1,–
Ginger/இஞ்சி,1,60 to 70
Butter Beans/பட்டர் பீன்ஸ்,1,100 to 140
Cabbage/முட்டை கோஸ்,1,5 to 7
Green Peas/பச்சை பட்டாணி,1,200
Bitter Gourd/பாகற்காய்,1,20 to 30
Nookal/நூக்கல்,1,40 to 50
Chaw Chaw/சவ்சவ்,1,10 to 12
Kovakkai/கோவக்காய்,1,4 to 5
Cluster Beans/கொத்தவரங்காய்,1,8 to 10
Gooseberry/நெல்லிக்காய்,1,35 to 40
Narthangai/நார்த்தங்காய்,1,80 to 90
Cucumber/வெள்ளரிக்காய்,1,10
Garlic/வெள்ளை பூண்டு,1,80 to 90
Gourd/பீர்க்கங்காய்,1,30 to 40
Small Tuber/சிறு கிழங்கு,1,15 to 20
Colocasia/சேப்பங்கிழங்கு,1,15 to 20
Soya beans/சோயா பீன்ஸ்,1,150
Butter Soya/பட்டர் சோயா,1,150
Senai Kilangu/சேனை கிழங்கு,1,15 to 20
Karunai Kilangu/கருணைக்கிழங்கு,1,15 to 20
Drumstick beans/முருங்கை பீன்ஸ்,1,30
Mangai Inji/மாங்காய் இஞ்சி,1,40