Avarai Belt,1,20
Avarai Kolee,1,20
Avarai ottu,1,–
Beans,1,17
Beetroot,1,15
Bellary,1,40
C Flower,1 Flower,8
C Vengayam,1,20
Chaw Chaw,1,15
Kaththari Disco,1,10
Kaththari Green,1,20
Kothavarai,1,10
Milagai Samba,1,22
Milagai urundai,1,25
Mullaingi,1,5
Murungai chedi,1,8
Murungai Maram,1,5
Nelli,1,25
Pavarkai,1,8
Perkangkai,1,8
Pudalai,1,8
Red Pusanikkai,1,5
Sambar Vellari,1,5
Suraikai,1,5
Thakkali,1,10
Thatta payaru,1,12
Vendai,1,4
Lemon,1,25