Lemon/எலுமிச்சை,1,50 to 80
Tomato/தக்காளி 1st Quality,1,8 to 10
Tomato/தக்காளி 2nd Quality,1,–
Small Onion/சிறிய வெங்காயம்,1,25 to 45
Bellary/பெல்லாரி,1,20 to 25
Beans/பீன்ஸ் 1st Quality,1,25 to 45
Beans/பீன்ஸ் 2nd Quality,1,20 to 40
Carrot/கேரட் 1st Quality,1,35 to 55
Carrot/கேரட் 2nd Quality,1,30 to 50
Lady Finger/வெண்டைக்காய்,1,10 to 12
Tree Drumstick/மரம் முருங்கை,1,20
Plant Drumstick/முருங்கை,1,32
Beans/அவரை ஒட்டு,1,26 to 45
Green Pulses/பச்சை பயிறு,1,30
White Pulses/வெள்ளை பயிறு,1,15
Zucchini/சுரைக்காய்,1,2 to 12
Beetroot/பீட்ரூட்,1,5 to 6
White Pumpkin/வெள்ளை பூசணிக்காய்,1,5
Sambar Pumpkin/சாம்பார் பூசணிக்காய்,1,2 to 3
Kalla Manga/கள்ள மாங்காய்,1,35
OOrutu Manga/உருட்டு மாங்காய்,1,30 to 35
Potato/உருளைக்கிழங்கு 1st Quality,1,25 to 35
Potato/உருளைக்கிழங்கு 2nd Quality,1,20 to 30
Coconut/தேங்காய் 1st Quality,1,20 to 25
Coconut/தேங்காய் 2nd Quality,1,15 to 20
Green Chilli/பச்சை மிளகாய்,1,10 to 15
Cauliflower/காலிஃபிளவர் 1st Quality,1,10 to 15
Cauliflower/காலிஃபிளவர் 2nd Quality,1,–
Green Brinjal/கத்தரிக்காய் பச்சை,1,20 to 25
Blue Brinjal/கத்தரிக்காய் நீலம்,1,15
Banana Thar/வாழை தார்,1,10 to 13
Curry Leaves/கறிவேப்பிலை,1,10 to 12
Gourd/புடலங்காய் 1st Quality,1,6 to 10
Gourd/புடலங்காய் 2nd Quality,1,–
Coriander/கொத்தமல்லி 1st Quality,1,60 to 80
Coriander/கொத்தமல்லி 2nd Quality,1,55 to 75
Radish/முள்ளங்கி 1st Quality,1,10 to 15
Radish/முள்ளங்கி 2nd Quality,1,–
Ginger/இஞ்சி,1,40 to 60
Butter Beans/பட்டர் பீன்ஸ்,1,100 to 120
Cabbage/முட்டை கோஸ்,1,6 to 8
Green Peas/பச்சை பட்டாணி,1,150 to 200
Bitter Gourd/பாகற்காய்,1,18 to 20
Nookal/நூக்கல்,1,20
Chaw Chaw/சவ்சவ்,1,10 to 15
Kovakkai/கோவக்காய்,1,23 to 25
Cluster Beans/கொத்தவரங்காய்,1,20 to 25
Gooseberry/நெல்லிக்காய்,1,20 to 25
Narthangai/நார்த்தங்காய்,1,30
Cucumber/வெள்ளரிக்காய்,1,30
Garlic/வெள்ளை பூண்டு,1,80
Gourd/பீர்க்கங்காய்,1,10 to 15
Small Tuber/சிறு கிழங்கு,1,–
Colocasia/சேப்பங்கிழங்கு,1,25
Soya beans/சோயா பீன்ஸ்,1,80 to 100
Butter Soya/பட்டர் சோயா,1,80 to 100
Senai Kilangu/சேனை கிழங்கு,1,25 to 30
Karunai Kilangu/கருணைக்கிழங்கு,1,20
Drumstick beans/முருங்கை பீன்ஸ்,1,30
Mangai Inji/மாங்காய் இஞ்சி,1,40