Lemon/எலுமிச்சை,1,30 to 70
Tomato/தக்காளி,1,25 to 35
Small Onion/சிறிய வெங்காயம்,1,80 to 130
Bellary/பெல்லாரி,1,50 to 55
Green Chili /பச்சை மிளகாய்,1,25 to 30
Lady Finger/வெண்டைக்காய்,1,52 to 60
Green Brinjal/கத்தரிக்காய் பச்சை,1,50 to 60
Blue Brinjal/கத்தரிக்காய் நீலம்,1,20 to 40
Tree Drumstick/மரம் முருங்கை,1,50
Plant Drumstick/முருங்கை,1,60
Cane Drum/ கரும்பு முருங்கை,1,70
Nashik Drumstick /நாசிக் முருங்கை,1,90
Gourd/புடலங்காய்,1,5 to 10
Bitter Gourd/பாகற்காய்,1,30 to 40
Zucchini/சுரைக்காய்,1,3 to 10
Chaw Chaw/சவ்சவ்,1,8 to 15
Gourd/பீர்க்கங்காய்,1,25 to 35
Beans/அவரை ஒட்டு,1,20 to 50
Kalla Manga/கள்ள மாங்காய்,1,60 to 70
OOrutu Manga/உருட்டு மாங்காய்,1,30 to 50
White Pumpkin/வெள்ளை பூசணிக்காய்,1,5 to 10
Sambar Pumpkin/சாம்பார் பூசணிக்காய்,1, 3 to 5
Potato/உருளைக்கிழங்கு,1,25 to 35
Cauliflower/காலிஃபிளவர்,1,30 to 40
Carrot/கேரட்,1,20 to 30
Radish/முள்ளங்கி,1,20 to 30
Ginger/இஞ்சி,1,20 to 25
Beans/பீன்ஸ்,1,30 to 70
Butter Beans/பட்டர் பீன்ஸ்,1,80 to 100
Nookal/நூக்கல்,1,30 to 40
Soya beans/சோயா பீன்ஸ்,1,80 to 100
Green Peas/பச்சை பட்டாணி,1,70 to 80
Coriander/கொத்தமல்லி,1,10 to 20
Curry Leaves/கறிவேப்பிலை,1,40 to 50
Cabbage/முட்டை கோஸ்,1,10 to 15
Cluster Beans/கொத்தவரங்காய்,1,30 to 40
Kovakkai/கோவக்காய்,1,20 to 25
Cucumber/வெள்ளரிக்காய்,1,20 to 25
Narthangai/நார்த்தங்காய்,1,20 to 30
Gooseberry/நெல்லிக்காய்,1,60 to 70
Colocasia/சேப்பங்கிழங்கு,1,20 to 35
Small Tuber/சிறு கிழங்கு,1,20 to 30
Senai Kilangu/சேனை கிழங்கு,1,10 to 20
Karunai Kilangu/கருணைக்கிழங்கு,1,30 to 40
Banana Thar/வாழை தார்,1,14 to 17
Mangai Inji/மாங்காய் இஞ்சி,1,20 to 40
 Pulses/ பயிறு,1,30 to 40
        Coconut/தேங்காய்,1,25 to 40
 Beetroot/பீட்ரூட்,1,12 to 25