Lemon/எலுமிச்சை,1,70 to 140
Tomato/தக்காளி 1st Quality,1,35 to 40
Tomato/தக்காளி 2nd Quality,1,30 to 35
Small Onion/சிறிய வெங்காயம்,1,30 to 40
Bellary/பெல்லாரி,1,13 to 16
Beans/பீன்ஸ் 1st Quality,1,70 to 100
Beans/பீன்ஸ் 2nd Quality,1,65 to 95
Carrot/கேரட் 1st Quality,1,35 to 40
Carrot/கேரட் 2nd Quality,1,30 to 35
Lady Finger/வெண்டைக்காய்,1,12 to 20
Tree Drumstick/மரம் முருங்கை,1,7
Plant Drumstick/முருங்கை,1,5
Beans/அவரை ஒட்டு,1,25 to 30
Green Pulses/பச்சை பயிறு,1,30
White Pulses/வெள்ளை பயிறு,1,22
Zucchini/சுரைக்காய்,1,7 to 20
Beetroot/பீட்ரூட்,1,26
White Pumpkin/வெள்ளை பூசணிக்காய்,1,8 to 18
Sambar Pumpkin/சாம்பார் பூசணிக்காய்,1,22 to 25
Kalla Manga/கள்ள மாங்காய்,1,15 to 20
OOrutu Manga/உருட்டு மாங்காய்,1,7 to 10
Potato/உருளைக்கிழங்கு 1st Quality,1,20 to 35
Potato/உருளைக்கிழங்கு 2nd Quality,1,15 to 30
Coconut/தேங்காய் 1st Quality,1,25 to 30
Coconut/தேங்காய் 2nd Quality,1,20 to 25
Green Chilli/பச்சை மிளகாய்,1,25 to 35
Cauliflower/காலிஃபிளவர் 1st Quality,1,25 to 30
Cauliflower/காலிஃபிளவர் 2nd Quality,1,20 to 25
Green Brinjal/கத்தரிக்காய் பச்சை,1,25
Blue Brinjal/கத்தரிக்காய் நீலம்,1,20
Banana Thar/வாழை தார்,1,20 to 22
Curry Leaves/கறிவேப்பிலை,1,30 to 35
Gourd/புடலங்காய் 1st Quality,1,33 to 40
Gourd/புடலங்காய் 2nd Quality,1,28 to 35
Coriander/கொத்தமல்லி 1st Quality,1,50 to 60
Coriander/கொத்தமல்லி 2nd Quality,1,45 to 55
Radish/முள்ளங்கி 1st Quality,1,30 to 35
Radish/முள்ளங்கி 2nd Quality,1,25 to 30
Ginger/இஞ்சி,1,100 to 110
Butter Beans/பட்டர் பீன்ஸ்,1,140 to 180
Cabbage/முட்டை கோஸ்,1,30 to 35
Green Peas/பச்சை பட்டாணி,1,90 to 100
Bitter Gourd/பாகற்காய்,1,35 to 40
Nookal/நூக்கல்,1,25 to 35
Chaw Chaw/சவ்சவ்,1,32 to 42
Kovakkai/கோவக்காய்,1,15 to 22
Cluster Beans/கொத்தவரங்காய்,1,25 to 28
Gooseberry/நெல்லிக்காய்,1,50 to 55
Narthangai/நார்த்தங்காய்,1,60 to 80
Cucumber/வெள்ளரிக்காய்,1,16
Garlic/வெள்ளை பூண்டு,1,100
Gourd/பீர்க்கங்காய்,1,20 to 30
Small Tuber/சிறு கிழங்கு,1,20 to 30
Colocasia/சேப்பங்கிழங்கு,1,20 to 35
Soya beans/சோயா பீன்ஸ்,1,140 to 180
Butter Soya/பட்டர் சோயா,1,120 to 140
Senai Kilangu/சேனை கிழங்கு,1,11 to 15
Karunai Kilangu/கருணைக்கிழங்கு,1,25 to 35
Drumstick beans/முருங்கை பீன்ஸ்,1,80
Mangai Inji/மாங்காய் இஞ்சி,1,60