Lemon/எலுமிச்சை,1,10 to 15
Tomato/தக்காளி 1st Quality,1,5 to 6
Tomato/தக்காளி 2nd Quality,1,–
Small Onion/சிறிய வெங்காயம்,1,25 to 30
Bellary/பெல்லாரி,1,35 to 40
Beans/பீன்ஸ் 1st Quality,1,15 to 30
Beans/பீன்ஸ் 2nd Quality,1,10 to 25
Carrot/கேரட் 1st Quality,1,30 to 40
Carrot/கேரட் 2nd Quality,1,25 to 35
Lady Finger/வெண்டைக்காய்,1,14 to 15
Tree Drumstick/மரம் முருங்கை,1,–
Plant Drumstick/முருங்கை,1,45 to 60
Beans/அவரை ஒட்டு,1,8 to 12
Green Pulses/பச்சை பயிறு,1,14
White Pulses/வெள்ளை பயிறு,1,10
Zucchini/சுரைக்காய்,1,2
Beetroot/பீட்ரூட்,1,3
White Pumpkin/வெள்ளை பூசணிக்காய்,1,3
Sambar Pumpkin/சாம்பார் பூசணிக்காய்,1,3.50
Kalla Manga/கள்ள மாங்காய்,1,130 to 150
OOrutu Manga/உருட்டு மாங்காய்,1,120
Potato/உருளைக்கிழங்கு 1st Quality,1,12 to 25
Potato/உருளைக்கிழங்கு 2nd Quality,1,10
Coconut/தேங்காய் 1st Quality,1,40 to 45
Coconut/தேங்காய் 2nd Quality,1,35 to 40
Green Chilli/பச்சை மிளகாய்,1,8 to 10
Cauliflower/காலிஃபிளவர் 1st Quality,1,12 to 15
Cauliflower/காலிஃபிளவர் 2nd Quality,1,10
Green Brinjal/கத்தரிக்காய் பச்சை,1,5 to 8
Blue Brinjal/கத்தரிக்காய் நீலம்,1,8
Banana Thar/வாழை தார்,1,25 to 30
Curry Leaves/கறிவேப்பிலை,1,15 to 20
Gourd/புடலங்காய் 1st Quality,1,2.50
Gourd/புடலங்காய் 2nd Quality,1,–
Coriander/கொத்தமல்லி 1st Quality,1,3 to 5
Coriander/கொத்தமல்லி 2nd Quality,1,–
Radish/முள்ளங்கி 1st Quality,1,5 to 10
Radish/முள்ளங்கி 2nd Quality,1,–
Ginger/இஞ்சி,1,20 to 25
Butter Beans/பட்டர் பீன்ஸ்,1,80
Cabbage/முட்டை கோஸ்,1,5 to 10
Green Peas/பச்சை பட்டாணி,1,40
Bitter Gourd/பாகற்காய்,1,12 to 14
Nookal/நூக்கல்,1,10 to 15
Chaw Chaw/சவ்சவ்,1,4 to 6
Kovakkai/கோவக்காய்,1,12
Cluster Beans/கொத்தவரங்காய்,1,12 to 15
Gooseberry/நெல்லிக்காய்,1,50 to 60
Narthangai/நார்த்தங்காய்,1,30 to 40
Cucumber/வெள்ளரிக்காய்,1,10
Garlic/வெள்ளை பூண்டு,1,100 to 120
Gourd/பீர்க்கங்காய்,1,10 to 15
Small Tuber/சிறு கிழங்கு,1,40
Colocasia/சேப்பங்கிழங்கு,1,35
Soya beans/சோயா பீன்ஸ்,1,80
Butter Soya/பட்டர் சோயா,1,80
Senai Kilangu/சேனை கிழங்கு,1,30
Karunai Kilangu/கருணைக்கிழங்கு,1,35
Drumstick beans/முருங்கை பீன்ஸ்,1,20
Mangai Inji/மாங்காய் இஞ்சி,1,40