Belt Beans / Avarai Belt,1,27
Beans Kolee / Avarai Kolee,1,30
Avarai ottu,1,–
Beans,1,40
Beetroot,1,6
Bellary / Big Onion,1,20
Cauliflower,1 Flower,15
Small Onion / Chinna Vengayam,1,15
Chaw Chaw,1,20
Disco Brinjal / Kaththari kai Disco,1,15
Green Brinjal / Kaththari Kai Pachai,1,20
Cluster Beans / Kothavarai,1,13
Samba Chilli / Milagai Samba,1,25
Round Chilli / Milagai Urundai,1,30
Radish / Mullangi,1,6
Drumstick / Murungai Chedi,1,38
Drumstick / Murungai Maram,1,35
Nelli Kai,1,25
Bitter Gourd / Pakar kai,1,–
Perkangkai,1,17
Snake Guard / Pudalai,1,12
Red Pumpkin / Red Pusanikkai,1,6
Sambar Vellari,1,12
Bottle gourd / Suraikai,1,6
Tomato / Thakkali,1,4
Thatta payaru,1,32
Lady’s Finger / Venda Kai,1,15
Lemon / Elumbichai,1,60