Lemon/எலுமிச்சை,1,50 to 85
Tomato/தக்காளி 1st Quality,1,15 to 20
Tomato/தக்காளி 2nd Quality,1,10 to 13
Small Onion/சிறிய வெங்காயம்,1,15 to 24
Bellary/பெல்லாரி,1,10 to 16
Beans/பீன்ஸ் 1st Quality,1,25 to 80
Beans/பீன்ஸ் 2nd Quality,1,20 to 75
Carrot/கேரட் 1st Quality,1,25 to 35
Carrot/கேரட் 2nd Quality,1,20 to 30
Lady Finger/வெண்டைக்காய்,1,28
Tree Drumstick/மரம் முருங்கை,1,7
Plant Drumstick/முருங்கை,1,8
Beans/அவரை ஒட்டு,1,30 to 50
Green Pulses/பச்சை பயிறு,1,30
White Pulses/வெள்ளை பயிறு,1,25
Zucchini/சுரைக்காய்,1,5 to 15
Beetroot/பீட்ரூட்,1,18
White Pumpkin/வெள்ளை பூசணிக்காய்,1,8 to 12
Sambar Pumpkin/சாம்பார் பூசணிக்காய்,1,15 to 18
Kalla Manga/கள்ள மாங்காய்,1,20 to 21
OOrutu Manga/உருட்டு மாங்காய்,1,15 to 19
Potato/உருளைக்கிழங்கு 1st Quality,1,20 to 25
Potato/உருளைக்கிழங்கு 2nd Quality,1,15 to 20
Coconut/தேங்காய் 1st Quality,1,25 to 31
Coconut/தேங்காய் 2nd Quality,1,20 to 26
Green Chilli/பச்சை மிளகாய்,1,25 to 44
Cauliflower/காலிஃபிளவர் 1st Quality,1,25 to 30
Cauliflower/காலிஃபிளவர் 2nd Quality,1,20 to 25
Green Brinjal/கத்தரிக்காய் பச்சை,1,10 to 15
Blue Brinjal/கத்தரிக்காய் நீலம்,1,10 to 15
Banana Thar/வாழை தார்,1,15 to 22
Curry Leaves/கறிவேப்பிலை,1,30 to 35
Gourd/புடலங்காய் 1st Quality,1,18 to 25
Gourd/புடலங்காய் 2nd Quality,1,13 to 20
Coriander/கொத்தமல்லி 1st Quality,1,40 to 50
Coriander/கொத்தமல்லி 2nd Quality,1,35 to 45
Radish/முள்ளங்கி 1st Quality,1,15 to 25
Radish/முள்ளங்கி 2nd Quality,1,10 to 20
Ginger/இஞ்சி,1,70 to 90
Butter Beans/பட்டர் பீன்ஸ்,1,60 to 120
Cabbage/முட்டை கோஸ்,1,25 to 35
Green Peas/பச்சை பட்டாணி,1,50 to 60
Bitter Gourd/பாகற்காய்,1,35
Nookal/நூக்கல்,1,25 to 30
Chaw Chaw/சவ்சவ்,1,25 to 35
Kovakkai/கோவக்காய்,1,11 to 18
Cluster Beans/கொத்தவரங்காய்,1,15 to 20
Gooseberry/நெல்லிக்காய்,1,50 to 55
Narthangai/நார்த்தங்காய்,1,60 to 70
Cucumber/வெள்ளரிக்காய்,1,26
Garlic/வெள்ளை பூண்டு,1,80 to 100
Gourd/பீர்க்கங்காய்,1,20 to 30
Small Tuber/சிறு கிழங்கு,1,20 to 40
Colocasia/சேப்பங்கிழங்கு,1,15 to 25
Soya beans/சோயா பீன்ஸ்,1,80 to 100
Butter Soya/பட்டர் சோயா,1,80 to 100
Senai Kilangu/சேனை கிழங்கு,1,9 to 15
Karunai Kilangu/கருணைக்கிழங்கு,1,25 to 30
Drumstick beans/முருங்கை பீன்ஸ்,1,60
Mangai Inji/மாங்காய் இஞ்சி,1,60