Lemon/எலுமிச்சை,1,70 to 80
Tomato/தக்காளி 1st Quality,1,18 to 20
Tomato/தக்காளி 2nd Quality,1,13 to 15
Small Onion/சிறிய வெங்காயம்,1,15 to 24
Bellary/பெல்லாரி,1,10 to 15
Beans/பீன்ஸ் 1st Quality,1,70 to 115
Beans/பீன்ஸ் 2nd Quality,1,65 to 110
Carrot/கேரட் 1st Quality,1,15 to 25
Carrot/கேரட் 2nd Quality,1,10 to 20
Lady Finger/வெண்டைக்காய்,1,20 to 25
Tree Drumstick/மரம் முருங்கை,1,7
Plant Drumstick/முருங்கை,1,7
Beans/அவரை ஒட்டு,1,45 to 65
Green Pulses/பச்சை பயிறு,1,31
White Pulses/வெள்ளை பயிறு,1,20
Zucchini/சுரைக்காய்,1,10 to 26
Beetroot/பீட்ரூட்,1,15 to 20
White Pumpkin/வெள்ளை பூசணிக்காய்,1,8 to 12
Sambar Pumpkin/சாம்பார் பூசணிக்காய்,1,14 to 18
Kalla Manga/கள்ள மாங்காய்,1,30 to 34
OOrutu Manga/உருட்டு மாங்காய்,1,20 to 28
Potato/உருளைக்கிழங்கு 1st Quality,1,15 to 25
Potato/உருளைக்கிழங்கு 2nd Quality,1,10 to 20
Coconut/தேங்காய் 1st Quality,1,25 to 32
Coconut/தேங்காய் 2nd Quality,1,20 to 28
Green Chilli/பச்சை மிளகாய்,1,28 to 42
Cauliflower/காலிஃபிளவர் 1st Quality,1,25 to 30
Cauliflower/காலிஃபிளவர் 2nd Quality,1,20 to 25
Green Brinjal/கத்தரிக்காய் பச்சை,1,20 to 25
Blue Brinjal/கத்தரிக்காய் நீலம்,1,10 to 20
Banana Thar/வாழை தார்,1,18 to 22
Curry Leaves/கறிவேப்பிலை,1,30 to 35
Gourd/புடலங்காய் 1st Quality,1,20 to 30
Gourd/புடலங்காய் 2nd Quality,1,10 to 25
Coriander/கொத்தமல்லி 1st Quality,1,25 to 35
Coriander/கொத்தமல்லி 2nd Quality,1,20 to 30
Radish/முள்ளங்கி 1st Quality,1,20 to 30
Radish/முள்ளங்கி 2nd Quality,1,15 to 25
Ginger/இஞ்சி,1,70 to 90
Butter Beans/பட்டர் பீன்ஸ்,1,60 to 120
Cabbage/முட்டை கோஸ்,1,35 to 40
Green Peas/பச்சை பட்டாணி,1,50 to 60
Bitter Gourd/பாகற்காய்,1,30 to 35
Nookal/நூக்கல்,1,30 to 35
Chaw Chaw/சவ்சவ்,1,20 to 35
Kovakkai/கோவக்காய்,1,18 to 26
Cluster Beans/கொத்தவரங்காய்,1,15 to 20
Gooseberry/நெல்லிக்காய்,1,50 to 55
Narthangai/நார்த்தங்காய்,1,70 to 80
Cucumber/வெள்ளரிக்காய்,1,24 to 26
Garlic/வெள்ளை பூண்டு,1,80 to 100
Gourd/பீர்க்கங்காய்,1,20 to 30
Small Tuber/சிறு கிழங்கு,1,20 to 40
Colocasia/சேப்பங்கிழங்கு,1,10 to 15
Soya beans/சோயா பீன்ஸ்,1,120
Butter Soya/பட்டர் சோயா,1,120
Senai Kilangu/சேனை கிழங்கு,1,15 to 20
Karunai Kilangu/கருணைக்கிழங்கு,1,25 to 30
Drumstick beans/முருங்கை பீன்ஸ்,1,60 to 80
Mangai Inji/மாங்காய் இஞ்சி,1,60 to 80