Lemon/எலுமிச்சை,1,20 to 30
Tomato/தக்காளி 1st Quality,1,7 to 8
Tomato/தக்காளி 2nd Quality,1,–
Small Onion/சிறிய வெங்காயம்,1,50 to 60
Bellary/பெல்லாரி,1,45 to 48
Beans/பீன்ஸ் 1st Quality,1,10 to 18
Beans/பீன்ஸ் 2nd Quality,1,10
Carrot/கேரட் 1st Quality,1,40 to 50
Carrot/கேரட் 2nd Quality,1,35 to 45
Lady Finger/வெண்டைக்காய்,1,12
Tree Drumstick/மரம் முருங்கை,1,–
Plant Drumstick/முருங்கை,1,65 to 90
Beans/அவரை ஒட்டு,1,6 to 16
Green Pulses/பச்சை பயிறு,1,10 to 16
White Pulses/வெள்ளை பயிறு,1,10
Zucchini/சுரைக்காய்,1,2
Beetroot/பீட்ரூட்,1,6
White Pumpkin/வெள்ளை பூசணிக்காய்,1,2 to 3
Sambar Pumpkin/சாம்பார் பூசணிக்காய்,1,3 to 4
Kalla Manga/கள்ள மாங்காய்,1,120
OOrutu Manga/உருட்டு மாங்காய்,1,110
Potato/உருளைக்கிழங்கு 1st Quality,1,12 to 15
Potato/உருளைக்கிழங்கு 2nd Quality,1,10
Coconut/தேங்காய் 1st Quality,1,40 to 48
Coconut/தேங்காய் 2nd Quality,1,35 to 43
Green Chilli/பச்சை மிளகாய்,1,10 to 12
Cauliflower/காலிஃபிளவர் 1st Quality,1,10 to 15
Cauliflower/காலிஃபிளவர் 2nd Quality,1,10
Green Brinjal/கத்தரிக்காய் பச்சை,1,10 to 15
Blue Brinjal/கத்தரிக்காய் நீலம்,1,10
Banana Thar/வாழை தார்,1,25 to 30
Curry Leaves/கறிவேப்பிலை,1,12 to 20
Gourd/புடலங்காய் 1st Quality,1,3
Gourd/புடலங்காய் 2nd Quality,1,–
Coriander/கொத்தமல்லி 1st Quality,1,5 to 8
Coriander/கொத்தமல்லி 2nd Quality,1,–
Radish/முள்ளங்கி 1st Quality,1,10 to 15
Radish/முள்ளங்கி 2nd Quality,1,–
Ginger/இஞ்சி,1,25 to 30
Butter Beans/பட்டர் பீன்ஸ்,1,80 to 100
Cabbage/முட்டை கோஸ்,1,10 to 15
Green Peas/பச்சை பட்டாணி,1,40 to 50
Bitter Gourd/பாகற்காய்,1,10 to 20
Nookal/நூக்கல்,1,15 to 20
Chaw Chaw/சவ்சவ்,1,5 to 8
Kovakkai/கோவக்காய்,1,16
Cluster Beans/கொத்தவரங்காய்,1,10 to 16
Gooseberry/நெல்லிக்காய்,1,30 to 35
Narthangai/நார்த்தங்காய்,1,25 to 30
Cucumber/வெள்ளரிக்காய்,1,7
Garlic/வெள்ளை பூண்டு,1,30 to 60
Gourd/பீர்க்கங்காய்,1,10 to 15
Small Tuber/சிறு கிழங்கு,1,40
Colocasia/சேப்பங்கிழங்கு,1,35
Soya beans/சோயா பீன்ஸ்,1,80 to 90
Butter Soya/பட்டர் சோயா,1,80 to 90
Senai Kilangu/சேனை கிழங்கு,1,30
Karunai Kilangu/கருணைக்கிழங்கு,1,35
Drumstick beans/முருங்கை பீன்ஸ்,1,10 to 15
Mangai Inji/மாங்காய் இஞ்சி,1,30 to 35