Lemon/எலுமிச்சை,1,15 to 25
Tomato/தக்காளி 1st Quality,1,15
Tomato/தக்காளி 2nd Quality,1,10
Small Onion/சிறிய வெங்காயம்,1,40 to 60
Bellary/பெல்லாரி,1,17 to 19
Beans/பீன்ஸ் 1st Quality,1,40 to 60
Beans/பீன்ஸ் 2nd Quality,1,35 to 55
Carrot/கேரட் 1st Quality,1,25 to 35
Carrot/கேரட் 2nd Quality,1,20 to 30
Lady Finger/வெண்டைக்காய்,1,17
Tree Drumstick/மரம் முருங்கை,1,28
Plant Drumstick/முருங்கை,1,44
Beans/அவரை ஒட்டு,1,25 to 35
Green Pulses/பச்சை பயிறு,1,10
White Pulses/வெள்ளை பயிறு,1,10
Zucchini/சுரைக்காய்,1,3 .50
Beetroot/பீட்ரூட்,1,18
White Pumpkin/வெள்ளை பூசணிக்காய்,1,15 to 20
Sambar Pumpkin/சாம்பார் பூசணிக்காய்,1,10 to 14
Kalla Manga/கள்ள மாங்காய்,1,10
OOrutu Manga/உருட்டு மாங்காய்,1,12
Potato/உருளைக்கிழங்கு 1st Quality,1,25 to 28
Potato/உருளைக்கிழங்கு 2nd Quality,1,20 to 23
Coconut/தேங்காய் 1st Quality,1,25 to 30
Coconut/தேங்காய் 2nd Quality,1,20 to 25
Green Chilli/பச்சை மிளகாய்,1,35 to 40
Cauliflower/காலிஃபிளவர் 1st Quality,1,15 to 20
Cauliflower/காலிஃபிளவர் 2nd Quality,1,10 to 15
Green Brinjal/கத்தரிக்காய் பச்சை,1,60 to 70
Blue Brinjal/கத்தரிக்காய் நீலம்,1,15 to 20
Banana Thar/வாழை தார்,1,18 to 20
Curry Leaves/கறிவேப்பிலை,1,8 to 15
Gourd/புடலங்காய் 1st Quality,1,18
Gourd/புடலங்காய் 2nd Quality,1,13
Coriander/கொத்தமல்லி 1st Quality,1,20 to 30
Coriander/கொத்தமல்லி 2nd Quality,1,15 to 25
Radish/முள்ளங்கி 1st Quality,1,30
Radish/முள்ளங்கி 2nd Quality,1,15
Ginger/இஞ்சி,1,60
Butter Beans/பட்டர் பீன்ஸ்,1,120
Cabbage/முட்டை கோஸ்,1,12
Green Peas/பச்சை பட்டாணி,1,120
Bitter Gourd/பாகற்காய்,1,29
Nookal/நூக்கல்,1,25
Chaw Chaw/சவ்சவ்,1,7
Kovakkai/கோவக்காய்,1,28
Cluster Beans/கொத்தவரங்காய்,1,10 to 15
Gooseberry/நெல்லிக்காய்,1,25
Narthangai/நார்த்தங்காய்,1,85
Cucumber/வெள்ளரிக்காய்,1,20
Garlic/வெள்ளை பூண்டு,1,50 to 80
Gourd/பீர்க்கங்காய்,1,25
Small Tuber/சிறு கிழங்கு,1,30
Colocasia/சேப்பங்கிழங்கு,1,25
Soya beans/சோயா பீன்ஸ்,1,100
Butter Soya/பட்டர் சோயா,1,100
Senai Kilangu/சேனை கிழங்கு,1,18
Karunai Kilangu/கருணைக்கிழங்கு,1,35
Drumstick beans/முருங்கை பீன்ஸ்,1,30
Mangai Inji/மாங்காய் இஞ்சி,1,100