Lemon/எலுமிச்சை,1,10 to 25
Tomato/தக்காளி,1,11 to 15
Small Onion/சிறிய வெங்காயம்,1,30 to 80
Bellary/பெல்லாரி,1,30 to 40
Green Chili /பச்சை மிளகாய்,1,15 to 25
Lady Finger/வெண்டைக்காய்,1,30 to 35
Green Brinjal/கத்தரிக்காய் பச்சை,1,15 to 25
Blue Brinjal/கத்தரிக்காய் நீலம்,1,15 to 25
Tree Drumstick/மரம் முருங்கை,1,40
Plant Drumstick/முருங்கை,1,50
Cane Drum/ கரும்பு முருங்கை,1,60
Nashik Drumstick /நாசிக் முருங்கை,1,110
Gourd/புடலங்காய்,1,7 to 10
Bitter Gourd/பாகற்காய்,1,35 to 40
Zucchini/சுரைக்காய்,1,4 to 8
Chaw Chaw/சவ்சவ்,1,10 to 15
Gourd/பீர்க்கங்காய்,1,22 to 25
Beans/அவரை ஒட்டு,1,10 to 25
Kalla Manga/கள்ள மாங்காய்,1,50 to 60
OOrutu Manga/உருட்டு மாங்காய்,1,40 to 50
White Pumpkin/வெள்ளை பூசணிக்காய்,1,4 to 7
Sambar Pumpkin/சாம்பார் பூசணிக்காய்,1,2 to 3
Potato/உருளைக்கிழங்கு,1,30 to 40
Cauliflower/காலிஃபிளவர்,1,15 to 20
Carrot/கேரட்,1,25 to 30
Radish/முள்ளங்கி,1,20 to 25
Ginger/இஞ்சி,1,25 to 30
Beans/பீன்ஸ்,1,20 to 30
Butter Beans/பட்டர் பீன்ஸ்,1,50 to 80
Nookal/நூக்கல்,1,20 to 30
Soya beans/சோயா பீன்ஸ்,1,80  to 100
Green Peas/பச்சை பட்டாணி,1,30 to 40
Coriander/கொத்தமல்லி,1,20 to 30
Curry Leaves/கறிவேப்பிலை,1,20 to 30
Cabbage/முட்டை கோஸ்,1,8 to 10
Cluster Beans/கொத்தவரங்காய்,1,15 to 20
Kovakkai/கோவக்காய்,1,30 to 35
Cucumber/வெள்ளரிக்காய்,1,20 to 25
Narthangai/நார்த்தங்காய்,1,10 to 15
Gooseberry/நெல்லிக்காய்,1,50 to 55
Colocasia/சேப்பங்கிழங்கு,1,20 to 25
Small Tuber/சிறு கிழங்கு,1,20 to 25
Senai Kilangu/சேனை கிழங்கு,1,25 to 30
Karunai Kilangu/கருணைக்கிழங்கு,1,20 to 25
Banana Thar/வாழை தார்,1,14 to 16
Mangai Inji/மாங்காய் இஞ்சி,1,25 to 30
 Pulses/ பயிறு,1,18 to 20
        Coconut/தேங்காய்,1,35 to 40
 Beetroot/பீட்ரூட்,1,6 to 10